('C:\\Users\\Admin\\projects\\ch4wardmap\\build\\run_me\\out00-PYZ.pyz',
 [('os', 'c:\\python27\\lib\\os.py', 'PYMODULE'),
  ('copy_reg', 'c:\\python27\\lib\\copy_reg.py', 'PYMODULE'),
  ('types', 'c:\\python27\\lib\\types.py', 'PYMODULE'),
  ('subprocess', 'c:\\python27\\lib\\subprocess.py', 'PYMODULE'),
  ('pickle', 'c:\\python27\\lib\\pickle.py', 'PYMODULE'),
  ('doctest', 'c:\\python27\\lib\\doctest.py', 'PYMODULE'),
  ('collections', 'c:\\python27\\lib\\collections.py', 'PYMODULE'),
  ('dummy_thread', 'c:\\python27\\lib\\dummy_thread.py', 'PYMODULE'),
  ('heapq', 'c:\\python27\\lib\\heapq.py', 'PYMODULE'),
  ('keyword', 'c:\\python27\\lib\\keyword.py', 'PYMODULE'),
  ('_abcoll', 'c:\\python27\\lib\\_abcoll.py', 'PYMODULE'),
  ('abc', 'c:\\python27\\lib\\abc.py', 'PYMODULE'),
  ('_weakrefset', 'c:\\python27\\lib\\_weakrefset.py', 'PYMODULE'),
  ('tempfile', 'c:\\python27\\lib\\tempfile.py', 'PYMODULE'),
  ('random', 'c:\\python27\\lib\\random.py', 'PYMODULE'),
  ('_strptime', 'c:\\python27\\lib\\_strptime.py', 'PYMODULE'),
  ('calendar', 'c:\\python27\\lib\\calendar.py', 'PYMODULE'),
  ('optparse', 'c:\\python27\\lib\\optparse.py', 'PYMODULE'),
  ('gettext', 'c:\\python27\\lib\\gettext.py', 'PYMODULE'),
  ('tokenize', 'c:\\python27\\lib\\tokenize.py', 'PYMODULE'),
  ('string', 'c:\\python27\\lib\\string.py', 'PYMODULE'),
  ('token', 'c:\\python27\\lib\\token.py', 'PYMODULE'),
  ('copy', 'c:\\python27\\lib\\copy.py', 'PYMODULE'),
  ('repr', 'c:\\python27\\lib\\repr.py', 'PYMODULE'),
  ('weakref', 'c:\\python27\\lib\\weakref.py', 'PYMODULE'),
  ('textwrap', 'c:\\python27\\lib\\textwrap.py', 'PYMODULE'),
  ('locale', 'c:\\python27\\lib\\locale.py', 'PYMODULE'),
  ('functools', 'c:\\python27\\lib\\functools.py', 'PYMODULE'),
  ('hashlib', 'c:\\python27\\lib\\hashlib.py', 'PYMODULE'),
  ('logging', 'c:\\python27\\lib\\logging\\__init__.py', 'PYMODULE'),
  ('atexit', 'c:\\python27\\lib\\atexit.py', 'PYMODULE'),
  ('io', 'c:\\python27\\lib\\io.py', 'PYMODULE'),
  ('pdb', 'c:\\python27\\lib\\pdb.py', 'PYMODULE'),
  ('shlex', 'c:\\python27\\lib\\shlex.py', 'PYMODULE'),
  ('pprint', 'c:\\python27\\lib\\pprint.py', 'PYMODULE'),
  ('bdb', 'c:\\python27\\lib\\bdb.py', 'PYMODULE'),
  ('fnmatch', 'c:\\python27\\lib\\fnmatch.py', 'PYMODULE'),
  ('cmd', 'c:\\python27\\lib\\cmd.py', 'PYMODULE'),
  ('difflib', 'c:\\python27\\lib\\difflib.py', 'PYMODULE'),
  ('unittest', 'c:\\python27\\lib\\unittest\\__init__.py', 'PYMODULE'),
  ('unittest.signals', 'c:\\python27\\lib\\unittest\\signals.py', 'PYMODULE'),
  ('unittest.main', 'c:\\python27\\lib\\unittest\\main.py', 'PYMODULE'),
  ('getopt', 'c:\\python27\\lib\\getopt.py', 'PYMODULE'),
  ('unittest.runner', 'c:\\python27\\lib\\unittest\\runner.py', 'PYMODULE'),
  ('unittest.loader', 'c:\\python27\\lib\\unittest\\loader.py', 'PYMODULE'),
  ('unittest.suite', 'c:\\python27\\lib\\unittest\\suite.py', 'PYMODULE'),
  ('unittest.case', 'c:\\python27\\lib\\unittest\\case.py', 'PYMODULE'),
  ('unittest.result', 'c:\\python27\\lib\\unittest\\result.py', 'PYMODULE'),
  ('unittest.util', 'c:\\python27\\lib\\unittest\\util.py', 'PYMODULE'),
  ('linecache', 'c:\\python27\\lib\\linecache.py', 'PYMODULE'),
  ('inspect', 'c:\\python27\\lib\\inspect.py', 'PYMODULE'),
  ('dis', 'c:\\python27\\lib\\dis.py', 'PYMODULE'),
  ('opcode', 'c:\\python27\\lib\\opcode.py', 'PYMODULE'),
  ('__future__', 'c:\\python27\\lib\\__future__.py', 'PYMODULE'),
  ('StringIO', 'c:\\python27\\lib\\StringIO.py', 'PYMODULE'),
  ('re', 'c:\\python27\\lib\\re.py', 'PYMODULE'),
  ('sre_constants', 'c:\\python27\\lib\\sre_constants.py', 'PYMODULE'),
  ('sre', 'c:\\python27\\lib\\sre.py', 'PYMODULE'),
  ('sre_parse', 'c:\\python27\\lib\\sre_parse.py', 'PYMODULE'),
  ('sre_compile', 'c:\\python27\\lib\\sre_compile.py', 'PYMODULE'),
  ('struct', 'c:\\python27\\lib\\struct.py', 'PYMODULE'),
  ('threading', 'c:\\python27\\lib\\threading.py', 'PYMODULE'),
  ('_threading_local', 'c:\\python27\\lib\\_threading_local.py', 'PYMODULE'),
  ('traceback', 'c:\\python27\\lib\\traceback.py', 'PYMODULE'),
  ('warnings', 'c:\\python27\\lib\\warnings.py', 'PYMODULE'),
  ('UserDict', 'c:\\python27\\lib\\UserDict.py', 'PYMODULE'),
  ('os2emxpath', 'c:\\python27\\lib\\os2emxpath.py', 'PYMODULE'),
  ('genericpath', 'c:\\python27\\lib\\genericpath.py', 'PYMODULE'),
  ('stat', 'c:\\python27\\lib\\stat.py', 'PYMODULE'),
  ('ntpath', 'c:\\python27\\lib\\ntpath.py', 'PYMODULE'),
  ('posixpath', 'c:\\python27\\lib\\posixpath.py', 'PYMODULE'),
  ('shutil', 'c:\\python27\\lib\\shutil.py', 'PYMODULE'),
  ('zipfile', 'c:\\python27\\lib\\zipfile.py', 'PYMODULE'),
  ('py_compile', 'c:\\python27\\lib\\py_compile.py', 'PYMODULE'),
  ('distutils.spawn', 'c:\\python27\\lib\\distutils\\spawn.py', 'PYMODULE'),
  ('distutils.sysconfig',
   'c:\\python27\\lib\\distutils\\sysconfig.py',
   'PYMODULE'),
  ('distutils.text_file',
   'c:\\python27\\lib\\distutils\\text_file.py',
   'PYMODULE'),
  ('_osx_support', 'c:\\python27\\lib\\_osx_support.py', 'PYMODULE'),
  ('contextlib', 'c:\\python27\\lib\\contextlib.py', 'PYMODULE'),
  ('distutils.log', 'c:\\python27\\lib\\distutils\\log.py', 'PYMODULE'),
  ('distutils', 'c:\\python27\\lib\\distutils\\__init__.py', 'PYMODULE'),
  ('distutils.archive_util',
   'c:\\python27\\lib\\distutils\\archive_util.py',
   'PYMODULE'),
  ('distutils.dir_util',
   'c:\\python27\\lib\\distutils\\dir_util.py',
   'PYMODULE'),
  ('distutils.file_util',
   'c:\\python27\\lib\\distutils\\file_util.py',
   'PYMODULE'),
  ('distutils.dep_util',
   'c:\\python27\\lib\\distutils\\dep_util.py',
   'PYMODULE'),
  ('distutils.ccompiler',
   'c:\\python27\\lib\\distutils\\ccompiler.py',
   'PYMODULE'),
  ('distutils.fancy_getopt',
   'c:\\python27\\lib\\distutils\\fancy_getopt.py',
   'PYMODULE'),
  ('distutils.util', 'c:\\python27\\lib\\distutils\\util.py', 'PYMODULE'),
  ('distutils.debug', 'c:\\python27\\lib\\distutils\\debug.py', 'PYMODULE'),
  ('distutils.errors', 'c:\\python27\\lib\\distutils\\errors.py', 'PYMODULE'),
  ('tarfile', 'c:\\python27\\lib\\tarfile.py', 'PYMODULE'),
  ('gzip', 'c:\\python27\\lib\\gzip.py', 'PYMODULE'),
  ('pkg_resources',
   'c:\\python27\\lib\\site-packages\\pkg_resources\\__init__.py',
   'PYMODULE'),
  ('pkg_resources._vendor',
   'c:\\python27\\lib\\site-packages\\pkg_resources\\_vendor\\__init__.py',
   'PYMODULE'),
  ('pkg_resources._vendor.packaging.__about__',
   'c:\\python27\\lib\\site-packages\\pkg_resources\\_vendor\\packaging\\__about__.py',
   'PYMODULE'),
  ('pkg_resources._vendor.packaging._compat',
   'c:\\python27\\lib\\site-packages\\pkg_resources\\_vendor\\packaging\\_compat.py',
   'PYMODULE'),
  ('pkg_resources._vendor.packaging',
   'c:\\python27\\lib\\site-packages\\pkg_resources\\_vendor\\packaging\\__init__.py',
   'PYMODULE'),
  ('pkg_resources._vendor.packaging._structures',
   'c:\\python27\\lib\\site-packages\\pkg_resources\\_vendor\\packaging\\_structures.py',
   'PYMODULE'),
  ('_markerlib',
   'c:\\python27\\lib\\site-packages\\_markerlib\\__init__.py',
   'PYMODULE'),
  ('_markerlib.markers',
   'c:\\python27\\lib\\site-packages\\_markerlib\\markers.py',
   'PYMODULE'),
  ('ast', 'c:\\python27\\lib\\ast.py', 'PYMODULE'),
  ('sysconfig', 'c:\\python27\\lib\\sysconfig.py', 'PYMODULE'),
  ('pkg_resources._vendor.packaging.specifiers',
   'c:\\python27\\lib\\site-packages\\pkg_resources\\_vendor\\packaging\\specifiers.py',
   'PYMODULE'),
  ('pkg_resources._vendor.packaging.version',
   'c:\\python27\\lib\\site-packages\\pkg_resources\\_vendor\\packaging\\version.py',
   'PYMODULE'),
  ('urlparse', 'c:\\python27\\lib\\urlparse.py', 'PYMODULE'),
  ('email.parser', 'c:\\python27\\lib\\email\\parser.py', 'PYMODULE'),
  ('email', 'c:\\python27\\lib\\email\\__init__.py', 'PYMODULE'),
  ('email.mime', 'c:\\python27\\lib\\email\\mime\\__init__.py', 'PYMODULE'),
  ('email.errors', 'c:\\python27\\lib\\email\\errors.py', 'PYMODULE'),
  ('email.message', 'c:\\python27\\lib\\email\\message.py', 'PYMODULE'),
  ('email.iterators', 'c:\\python27\\lib\\email\\iterators.py', 'PYMODULE'),
  ('email.generator', 'c:\\python27\\lib\\email\\generator.py', 'PYMODULE'),
  ('email.header', 'c:\\python27\\lib\\email\\header.py', 'PYMODULE'),
  ('email.base64mime', 'c:\\python27\\lib\\email\\base64mime.py', 'PYMODULE'),
  ('email.quoprimime', 'c:\\python27\\lib\\email\\quoprimime.py', 'PYMODULE'),
  ('email.utils', 'c:\\python27\\lib\\email\\utils.py', 'PYMODULE'),
  ('email.encoders', 'c:\\python27\\lib\\email\\encoders.py', 'PYMODULE'),
  ('quopri', 'c:\\python27\\lib\\quopri.py', 'PYMODULE'),
  ('email._parseaddr', 'c:\\python27\\lib\\email\\_parseaddr.py', 'PYMODULE'),
  ('urllib', 'c:\\python27\\lib\\urllib.py', 'PYMODULE'),
  ('getpass', 'c:\\python27\\lib\\getpass.py', 'PYMODULE'),
  ('ftplib', 'c:\\python27\\lib\\ftplib.py', 'PYMODULE'),
  ('mimetools', 'c:\\python27\\lib\\mimetools.py', 'PYMODULE'),
  ('rfc822', 'c:\\python27\\lib\\rfc822.py', 'PYMODULE'),
  ('mimetypes', 'c:\\python27\\lib\\mimetypes.py', 'PYMODULE'),
  ('httplib', 'c:\\python27\\lib\\httplib.py', 'PYMODULE'),
  ('ssl', 'c:\\python27\\lib\\ssl.py', 'PYMODULE'),
  ('nturl2path', 'c:\\python27\\lib\\nturl2path.py', 'PYMODULE'),
  ('socket', 'c:\\python27\\lib\\socket.py', 'PYMODULE'),
  ('base64', 'c:\\python27\\lib\\base64.py', 'PYMODULE'),
  ('email.charset', 'c:\\python27\\lib\\email\\charset.py', 'PYMODULE'),
  ('uu', 'c:\\python27\\lib\\uu.py', 'PYMODULE'),
  ('email.feedparser', 'c:\\python27\\lib\\email\\feedparser.py', 'PYMODULE'),
  ('plistlib', 'c:\\python27\\lib\\plistlib.py', 'PYMODULE'),
  ('xml.parsers.expat',
   'c:\\python27\\lib\\xml\\parsers\\expat.py',
   'PYMODULE'),
  ('xml.parsers', 'c:\\python27\\lib\\xml\\parsers\\__init__.py', 'PYMODULE'),
  ('xml', 'c:\\python27\\lib\\xml\\__init__.py', 'PYMODULE'),
  ('xml.sax.expatreader',
   'c:\\python27\\lib\\xml\\sax\\expatreader.py',
   'PYMODULE'),
  ('xml.sax.saxutils',
   'c:\\python27\\lib\\xml\\sax\\saxutils.py',
   'PYMODULE'),
  ('xml.sax', 'c:\\python27\\lib\\xml\\sax\\__init__.py', 'PYMODULE'),
  ('xml.sax.handler', 'c:\\python27\\lib\\xml\\sax\\handler.py', 'PYMODULE'),
  ('xml.sax._exceptions',
   'c:\\python27\\lib\\xml\\sax\\_exceptions.py',
   'PYMODULE'),
  ('xml.sax.xmlreader',
   'c:\\python27\\lib\\xml\\sax\\xmlreader.py',
   'PYMODULE'),
  ('platform', 'c:\\python27\\lib\\platform.py', 'PYMODULE'),
  ('winreg',
   'c:\\python27\\lib\\site-packages\\winreg\\__init__.py',
   'PYMODULE'),
  ('ctypes.wintypes', 'c:\\python27\\lib\\ctypes\\wintypes.py', 'PYMODULE'),
  ('ctypes', 'c:\\python27\\lib\\ctypes\\__init__.py', 'PYMODULE'),
  ('ctypes._endian', 'c:\\python27\\lib\\ctypes\\_endian.py', 'PYMODULE'),
  ('symbol', 'c:\\python27\\lib\\symbol.py', 'PYMODULE'),
  ('pkgutil', 'c:\\python27\\lib\\pkgutil.py', 'PYMODULE'),
  ('win32com',
   'c:\\python27\\lib\\site-packages\\win32com\\__init__.py',
   'PYMODULE'),
  ('win32com.server.util',
   'c:\\python27\\lib\\site-packages\\win32com\\server\\util.py',
   'PYMODULE'),
  ('win32com.server',
   'c:\\python27\\lib\\site-packages\\win32com\\server\\__init__.py',
   'PYMODULE'),
  ('win32com.server.dispatcher',
   'c:\\python27\\lib\\site-packages\\win32com\\server\\dispatcher.py',
   'PYMODULE'),
  ('win32traceutil',
   'c:\\python27\\lib\\site-packages\\win32\\lib\\win32traceutil.py',
   'PYMODULE'),
  ('win32com.util',
   'c:\\python27\\lib\\site-packages\\win32com\\util.py',
   'PYMODULE'),
  ('win32con',
   'c:\\python27\\lib\\site-packages\\win32\\lib\\win32con.py',
   'PYMODULE'),
  ('win32com.server.exception',
   'c:\\python27\\lib\\site-packages\\win32com\\server\\exception.py',
   'PYMODULE'),
  ('winerror',
   'c:\\python27\\lib\\site-packages\\win32\\lib\\winerror.py',
   'PYMODULE'),
  ('win32com.server.policy',
   'c:\\python27\\lib\\site-packages\\win32com\\server\\policy.py',
   'PYMODULE'),
  ('win32com.client',
   'c:\\python27\\lib\\site-packages\\win32com\\client\\__init__.py',
   'PYMODULE'),
  ('win32com.client.selecttlb',
   'c:\\python27\\lib\\site-packages\\win32com\\client\\selecttlb.py',
   'PYMODULE'),
  ('pywin.dialogs.list',
   'c:\\python27\\lib\\site-packages\\Pythonwin\\pywin\\dialogs\\list.py',
   'PYMODULE'),
  ('pywin.dialogs',
   'c:\\python27\\lib\\site-packages\\Pythonwin\\pywin\\dialogs\\__init__.py',
   'PYMODULE'),
  ('pywin.dialogs.status',
   'c:\\python27\\lib\\site-packages\\Pythonwin\\pywin\\dialogs\\status.py',
   'PYMODULE'),
  ('pywin.mfc.thread',
   'c:\\python27\\lib\\site-packages\\Pythonwin\\pywin\\mfc\\thread.py',
   'PYMODULE'),
  ('pywin.mfc.object',
   'c:\\python27\\lib\\site-packages\\Pythonwin\\pywin\\mfc\\object.py',
   'PYMODULE'),
  ('pywin',
   'c:\\python27\\lib\\site-packages\\Pythonwin\\pywin\\__init__.py',
   'PYMODULE'),
  ('commctrl',
   'c:\\python27\\lib\\site-packages\\win32\\lib\\commctrl.py',
   'PYMODULE'),
  ('pywin.mfc.dialog',
   'c:\\python27\\lib\\site-packages\\Pythonwin\\pywin\\mfc\\dialog.py',
   'PYMODULE'),
  ('pywin.mfc.window',
   'c:\\python27\\lib\\site-packages\\Pythonwin\\pywin\\mfc\\window.py',
   'PYMODULE'),
  ('pywin.mfc',
   'c:\\python27\\lib\\site-packages\\Pythonwin\\pywin\\mfc\\__init__.py',
   'PYMODULE'),
  ('win32com.client.genpy',
   'c:\\python27\\lib\\site-packages\\win32com\\client\\genpy.py',
   'PYMODULE'),
  ('win32com.client.build',
   'c:\\python27\\lib\\site-packages\\win32com\\client\\build.py',
   'PYMODULE'),
  ('win32com.client.gencache',
   'c:\\python27\\lib\\site-packages\\win32com\\client\\gencache.py',
   'PYMODULE'),
  ('win32com.client.makepy',
   'c:\\python27\\lib\\site-packages\\win32com\\client\\makepy.py',
   'PYMODULE'),
  ('win32com.client.CLSIDToClass',
   'c:\\python27\\lib\\site-packages\\win32com\\client\\CLSIDToClass.py',
   'PYMODULE'),
  ('glob', 'c:\\python27\\lib\\glob.py', 'PYMODULE'),
  ('win32com.client.dynamic',
   'c:\\python27\\lib\\site-packages\\win32com\\client\\dynamic.py',
   'PYMODULE'),
  ('pywintypes',
   'c:\\python27\\lib\\site-packages\\win32\\lib\\pywintypes.py',
   'PYMODULE'),
  ('win32com.client.util',
   'c:\\python27\\lib\\site-packages\\win32com\\client\\util.py',
   'PYMODULE'),
  ('win32com.universal',
   'c:\\python27\\lib\\site-packages\\win32com\\universal.py',
   'PYMODULE'),
  ('pythoncom', 'c:\\python27\\lib\\site-packages\\pythoncom.py', 'PYMODULE'),
  ('encodings.aliases',
   'c:\\python27\\lib\\encodings\\aliases.py',
   'PYMODULE'),
  ('encodings', 'c:\\python27\\lib\\encodings\\__init__.py', 'PYMODULE'),
  ('encodings.idna', 'c:\\python27\\lib\\encodings\\idna.py', 'PYMODULE'),
  ('stringprep', 'c:\\python27\\lib\\stringprep.py', 'PYMODULE'),
  ('encodings.mbcs', 'c:\\python27\\lib\\encodings\\mbcs.py', 'PYMODULE'),
  ('encodings.raw_unicode_escape',
   'c:\\python27\\lib\\encodings\\raw_unicode_escape.py',
   'PYMODULE'),
  ('encodings.gb18030',
   'c:\\python27\\lib\\encodings\\gb18030.py',
   'PYMODULE'),
  ('encodings.shift_jisx0213',
   'c:\\python27\\lib\\encodings\\shift_jisx0213.py',
   'PYMODULE'),
  ('encodings.ascii', 'c:\\python27\\lib\\encodings\\ascii.py', 'PYMODULE'),
  ('encodings.cp861', 'c:\\python27\\lib\\encodings\\cp861.py', 'PYMODULE'),
  ('encodings.cp860', 'c:\\python27\\lib\\encodings\\cp860.py', 'PYMODULE'),
  ('encodings.cp863', 'c:\\python27\\lib\\encodings\\cp863.py', 'PYMODULE'),
  ('encodings.cp862', 'c:\\python27\\lib\\encodings\\cp862.py', 'PYMODULE'),
  ('encodings.cp865', 'c:\\python27\\lib\\encodings\\cp865.py', 'PYMODULE'),
  ('encodings.big5hkscs',
   'c:\\python27\\lib\\encodings\\big5hkscs.py',
   'PYMODULE'),
  ('encodings.cp866', 'c:\\python27\\lib\\encodings\\cp866.py', 'PYMODULE'),
  ('encodings.cp869', 'c:\\python27\\lib\\encodings\\cp869.py', 'PYMODULE'),
  ('encodings.mac_latin2',
   'c:\\python27\\lib\\encodings\\mac_latin2.py',
   'PYMODULE'),
  ('encodings.hex_codec',
   'c:\\python27\\lib\\encodings\\hex_codec.py',
   'PYMODULE'),
  ('encodings.cp950', 'c:\\python27\\lib\\encodings\\cp950.py', 'PYMODULE'),
  ('encodings.quopri_codec',
   'c:\\python27\\lib\\encodings\\quopri_codec.py',
   'PYMODULE'),
  ('encodings.utf_32_be',
   'c:\\python27\\lib\\encodings\\utf_32_be.py',
   'PYMODULE'),
  ('encodings.string_escape',
   'c:\\python27\\lib\\encodings\\string_escape.py',
   'PYMODULE'),
  ('encodings.cp1250', 'c:\\python27\\lib\\encodings\\cp1250.py', 'PYMODULE'),
  ('encodings.cp1251', 'c:\\python27\\lib\\encodings\\cp1251.py', 'PYMODULE'),
  ('encodings.cp1253', 'c:\\python27\\lib\\encodings\\cp1253.py', 'PYMODULE'),
  ('encodings.cp1254', 'c:\\python27\\lib\\encodings\\cp1254.py', 'PYMODULE'),
  ('encodings.cp1255', 'c:\\python27\\lib\\encodings\\cp1255.py', 'PYMODULE'),
  ('encodings.cp1256', 'c:\\python27\\lib\\encodings\\cp1256.py', 'PYMODULE'),
  ('encodings.cp1257', 'c:\\python27\\lib\\encodings\\cp1257.py', 'PYMODULE'),
  ('encodings.cp1258', 'c:\\python27\\lib\\encodings\\cp1258.py', 'PYMODULE'),
  ('encodings.euc_jp', 'c:\\python27\\lib\\encodings\\euc_jp.py', 'PYMODULE'),
  ('encodings.hz', 'c:\\python27\\lib\\encodings\\hz.py', 'PYMODULE'),
  ('encodings.mac_cyrillic',
   'c:\\python27\\lib\\encodings\\mac_cyrillic.py',
   'PYMODULE'),
  ('encodings.iso2022_kr',
   'c:\\python27\\lib\\encodings\\iso2022_kr.py',
   'PYMODULE'),
  ('encodings.unicode_internal',
   'c:\\python27\\lib\\encodings\\unicode_internal.py',
   'PYMODULE'),
  ('encodings.cp500', 'c:\\python27\\lib\\encodings\\cp500.py', 'PYMODULE'),
  ('encodings.iso8859_10',
   'c:\\python27\\lib\\encodings\\iso8859_10.py',
   'PYMODULE'),
  ('encodings.iso8859_11',
   'c:\\python27\\lib\\encodings\\iso8859_11.py',
   'PYMODULE'),
  ('encodings.iso8859_13',
   'c:\\python27\\lib\\encodings\\iso8859_13.py',
   'PYMODULE'),
  ('encodings.iso8859_14',
   'c:\\python27\\lib\\encodings\\iso8859_14.py',
   'PYMODULE'),
  ('encodings.cp424', 'c:\\python27\\lib\\encodings\\cp424.py', 'PYMODULE'),
  ('encodings.iso8859_16',
   'c:\\python27\\lib\\encodings\\iso8859_16.py',
   'PYMODULE'),
  ('encodings.cp1006', 'c:\\python27\\lib\\encodings\\cp1006.py', 'PYMODULE'),
  ('encodings.hp_roman8',
   'c:\\python27\\lib\\encodings\\hp_roman8.py',
   'PYMODULE'),
  ('encodings.charmap',
   'c:\\python27\\lib\\encodings\\charmap.py',
   'PYMODULE'),
  ('encodings.utf_32', 'c:\\python27\\lib\\encodings\\utf_32.py', 'PYMODULE'),
  ('encodings.latin_1',
   'c:\\python27\\lib\\encodings\\latin_1.py',
   'PYMODULE'),
  ('encodings.utf_16_be',
   'c:\\python27\\lib\\encodings\\utf_16_be.py',
   'PYMODULE'),
  ('encodings.cp737', 'c:\\python27\\lib\\encodings\\cp737.py', 'PYMODULE'),
  ('encodings.utf_16', 'c:\\python27\\lib\\encodings\\utf_16.py', 'PYMODULE'),
  ('encodings.cp437', 'c:\\python27\\lib\\encodings\\cp437.py', 'PYMODULE'),
  ('encodings.mac_roman',
   'c:\\python27\\lib\\encodings\\mac_roman.py',
   'PYMODULE'),
  ('encodings.mac_centeuro',
   'c:\\python27\\lib\\encodings\\mac_centeuro.py',
   'PYMODULE'),
  ('encodings.mac_croatian',
   'c:\\python27\\lib\\encodings\\mac_croatian.py',
   'PYMODULE'),
  ('encodings.punycode',
   'c:\\python27\\lib\\encodings\\punycode.py',
   'PYMODULE'),
  ('encodings.unicode_escape',
   'c:\\python27\\lib\\encodings\\unicode_escape.py',
   'PYMODULE'),
  ('encodings.bz2_codec',
   'c:\\python27\\lib\\encodings\\bz2_codec.py',
   'PYMODULE'),
  ('encodings.rot_13', 'c:\\python27\\lib\\encodings\\rot_13.py', 'PYMODULE'),
  ('encodings.cp874', 'c:\\python27\\lib\\encodings\\cp874.py', 'PYMODULE'),
  ('encodings.cp875', 'c:\\python27\\lib\\encodings\\cp875.py', 'PYMODULE'),
  ('encodings.cp720', 'c:\\python27\\lib\\encodings\\cp720.py', 'PYMODULE'),
  ('encodings.tis_620',
   'c:\\python27\\lib\\encodings\\tis_620.py',
   'PYMODULE'),
  ('encodings.zlib_codec',
   'c:\\python27\\lib\\encodings\\zlib_codec.py',
   'PYMODULE'),
  ('encodings.iso2022_jp_2004',
   'c:\\python27\\lib\\encodings\\iso2022_jp_2004.py',
   'PYMODULE'),
  ('encodings.euc_jisx0213',
   'c:\\python27\\lib\\encodings\\euc_jisx0213.py',
   'PYMODULE'),
  ('encodings.ptcp154',
   'c:\\python27\\lib\\encodings\\ptcp154.py',
   'PYMODULE'),
  ('encodings.uu_codec',
   'c:\\python27\\lib\\encodings\\uu_codec.py',
   'PYMODULE'),
  ('encodings.utf_16_le',
   'c:\\python27\\lib\\encodings\\utf_16_le.py',
   'PYMODULE'),
  ('encodings.iso2022_jp_2',
   'c:\\python27\\lib\\encodings\\iso2022_jp_2.py',
   'PYMODULE'),
  ('encodings.iso2022_jp_3',
   'c:\\python27\\lib\\encodings\\iso2022_jp_3.py',
   'PYMODULE'),
  ('encodings.iso2022_jp_1',
   'c:\\python27\\lib\\encodings\\iso2022_jp_1.py',
   'PYMODULE'),
  ('encodings.mac_romanian',
   'c:\\python27\\lib\\encodings\\mac_romanian.py',
   'PYMODULE'),
  ('encodings.cp1026', 'c:\\python27\\lib\\encodings\\cp1026.py', 'PYMODULE'),
  ('encodings.mac_farsi',
   'c:\\python27\\lib\\encodings\\mac_farsi.py',
   'PYMODULE'),
  ('encodings.undefined',
   'c:\\python27\\lib\\encodings\\undefined.py',
   'PYMODULE'),
  ('encodings.mac_turkish',
   'c:\\python27\\lib\\encodings\\mac_turkish.py',
   'PYMODULE'),
  ('encodings.koi8_u', 'c:\\python27\\lib\\encodings\\koi8_u.py', 'PYMODULE'),
  ('encodings.koi8_r', 'c:\\python27\\lib\\encodings\\koi8_r.py', 'PYMODULE'),
  ('encodings.utf_8_sig',
   'c:\\python27\\lib\\encodings\\utf_8_sig.py',
   'PYMODULE'),
  ('encodings.iso2022_jp',
   'c:\\python27\\lib\\encodings\\iso2022_jp.py',
   'PYMODULE'),
  ('encodings.palmos', 'c:\\python27\\lib\\encodings\\palmos.py', 'PYMODULE'),
  ('encodings.mac_greek',
   'c:\\python27\\lib\\encodings\\mac_greek.py',
   'PYMODULE'),
  ('encodings.shift_jis_2004',
   'c:\\python27\\lib\\encodings\\shift_jis_2004.py',
   'PYMODULE'),
  ('encodings.gbk', 'c:\\python27\\lib\\encodings\\gbk.py', 'PYMODULE'),
  ('encodings.mac_iceland',
   'c:\\python27\\lib\\encodings\\mac_iceland.py',
   'PYMODULE'),
  ('encodings.cp858', 'c:\\python27\\lib\\encodings\\cp858.py', 'PYMODULE'),
  ('encodings.cp850', 'c:\\python27\\lib\\encodings\\cp850.py', 'PYMODULE'),
  ('encodings.cp852', 'c:\\python27\\lib\\encodings\\cp852.py', 'PYMODULE'),
  ('encodings.cp855', 'c:\\python27\\lib\\encodings\\cp855.py', 'PYMODULE'),
  ('encodings.cp856', 'c:\\python27\\lib\\encodings\\cp856.py', 'PYMODULE'),
  ('encodings.cp857', 'c:\\python27\\lib\\encodings\\cp857.py', 'PYMODULE'),
  ('encodings.iso8859_4',
   'c:\\python27\\lib\\encodings\\iso8859_4.py',
   'PYMODULE'),
  ('encodings.iso8859_5',
   'c:\\python27\\lib\\encodings\\iso8859_5.py',
   'PYMODULE'),
  ('encodings.iso8859_6',
   'c:\\python27\\lib\\encodings\\iso8859_6.py',
   'PYMODULE'),
  ('encodings.iso8859_7',
   'c:\\python27\\lib\\encodings\\iso8859_7.py',
   'PYMODULE'),
  ('encodings.iso8859_1',
   'c:\\python27\\lib\\encodings\\iso8859_1.py',
   'PYMODULE'),
  ('encodings.iso8859_2',
   'c:\\python27\\lib\\encodings\\iso8859_2.py',
   'PYMODULE'),
  ('encodings.iso8859_3',
   'c:\\python27\\lib\\encodings\\iso8859_3.py',
   'PYMODULE'),
  ('encodings.gb2312', 'c:\\python27\\lib\\encodings\\gb2312.py', 'PYMODULE'),
  ('encodings.iso8859_8',
   'c:\\python27\\lib\\encodings\\iso8859_8.py',
   'PYMODULE'),
  ('encodings.iso8859_9',
   'c:\\python27\\lib\\encodings\\iso8859_9.py',
   'PYMODULE'),
  ('encodings.cp949', 'c:\\python27\\lib\\encodings\\cp949.py', 'PYMODULE'),
  ('encodings.cp864', 'c:\\python27\\lib\\encodings\\cp864.py', 'PYMODULE'),
  ('encodings.base64_codec',
   'c:\\python27\\lib\\encodings\\base64_codec.py',
   'PYMODULE'),
  ('encodings.cp037', 'c:\\python27\\lib\\encodings\\cp037.py', 'PYMODULE'),
  ('encodings.utf_8', 'c:\\python27\\lib\\encodings\\utf_8.py', 'PYMODULE'),
  ('encodings.mac_arabic',
   'c:\\python27\\lib\\encodings\\mac_arabic.py',
   'PYMODULE'),
  ('encodings.euc_kr', 'c:\\python27\\lib\\encodings\\euc_kr.py', 'PYMODULE'),
  ('encodings.utf_7', 'c:\\python27\\lib\\encodings\\utf_7.py', 'PYMODULE'),
  ('encodings.shift_jis',
   'c:\\python27\\lib\\encodings\\shift_jis.py',
   'PYMODULE'),
  ('encodings.utf_32_le',
   'c:\\python27\\lib\\encodings\\utf_32_le.py',
   'PYMODULE'),
  ('encodings.euc_jis_2004',
   'c:\\python27\\lib\\encodings\\euc_jis_2004.py',
   'PYMODULE'),
  ('encodings.cp775', 'c:\\python27\\lib\\encodings\\cp775.py', 'PYMODULE'),
  ('encodings.cp1140', 'c:\\python27\\lib\\encodings\\cp1140.py', 'PYMODULE'),
  ('encodings.big5', 'c:\\python27\\lib\\encodings\\big5.py', 'PYMODULE'),
  ('encodings.iso8859_15',
   'c:\\python27\\lib\\encodings\\iso8859_15.py',
   'PYMODULE'),
  ('encodings.iso2022_jp_ext',
   'c:\\python27\\lib\\encodings\\iso2022_jp_ext.py',
   'PYMODULE'),
  ('encodings.johab', 'c:\\python27\\lib\\encodings\\johab.py', 'PYMODULE'),
  ('encodings.cp932', 'c:\\python27\\lib\\encodings\\cp932.py', 'PYMODULE'),
  ('encodings.cp1252', 'c:\\python27\\lib\\encodings\\cp1252.py', 'PYMODULE'),
  ('codecs', 'c:\\python27\\lib\\codecs.py', 'PYMODULE'),
  ('StartWindow',
   'C:\\Users\\Admin\\projects\\ch4wardmap\\StartWindow.py',
   'PYMODULE'),
  ('WardMap',
   'C:\\Users\\Admin\\projects\\ch4wardmap\\WardMap.py',
   'PYMODULE'),
  ('CorrectedAddressWindow',
   'C:\\Users\\Admin\\projects\\ch4wardmap\\CorrectedAddressWindow.py',
   'PYMODULE'),
  ('ColumnsNotSetWindow',
   'C:\\Users\\Admin\\projects\\ch4wardmap\\ColumnsNotSetWindow.py',
   'PYMODULE'),
  ('MoveOutWindow',
   'C:\\Users\\Admin\\projects\\ch4wardmap\\MoveOutWindow.py',
   'PYMODULE'),
  ('MoveInWindow',
   'C:\\Users\\Admin\\projects\\ch4wardmap\\MoveInWindow.py',
   'PYMODULE'),
  ('AddressNotFoundWindow',
   'C:\\Users\\Admin\\projects\\ch4wardmap\\AddressNotFoundWindow.py',
   'PYMODULE'),
  ('pandas',
   'c:\\python27\\lib\\site-packages\\pandas\\__init__.py',
   'PYMODULE'),
  ('pandas._version',
   'c:\\python27\\lib\\site-packages\\pandas\\_version.py',
   'PYMODULE'),
  ('pandas.util.nosetester',
   'c:\\python27\\lib\\site-packages\\pandas\\util\\nosetester.py',
   'PYMODULE'),
  ('pandas.util',
   'c:\\python27\\lib\\site-packages\\pandas\\util\\__init__.py',
   'PYMODULE'),
  ('numpy.testing.noseclasses',
   'c:\\python27\\lib\\site-packages\\numpy\\testing\\noseclasses.py',
   'PYMODULE'),
  ('numpy.testing.utils',
   'c:\\python27\\lib\\site-packages\\numpy\\testing\\utils.py',
   'PYMODULE'),
  ('numpy.core.fromnumeric',
   'c:\\python27\\lib\\site-packages\\numpy\\core\\fromnumeric.py',
   'PYMODULE'),
  ('numpy.core._methods',
   'c:\\python27\\lib\\site-packages\\numpy\\core\\_methods.py',
   'PYMODULE'),
  ('numpy.core.numeric',
   'c:\\python27\\lib\\site-packages\\numpy\\core\\numeric.py',
   'PYMODULE'),
  ('numpy.core.arrayprint',
   'c:\\python27\\lib\\site-packages\\numpy\\core\\arrayprint.py',
   'PYMODULE'),
  ('builtins',
   'c:\\python27\\lib\\site-packages\\builtins\\__init__.py',
   'PYMODULE'),
  ('future.builtins',
   'c:\\python27\\lib\\site-packages\\future\\builtins\\__init__.py',
   'PYMODULE'),
  ('future.types.newbytes',
   'c:\\python27\\lib\\site-packages\\future\\types\\newbytes.py',
   'PYMODULE'),
  ('future.utils.surrogateescape',
   'c:\\python27\\lib\\site-packages\\future\\utils\\surrogateescape.py',
   'PYMODULE'),
  ('numbers', 'c:\\python27\\lib\\numbers.py', 'PYMODULE'),
  ('future.types.newstr',
   'c:\\python27\\lib\\site-packages\\future\\types\\newstr.py',
   'PYMODULE'),
  ('future.types.newobject',
   'c:\\python27\\lib\\site-packages\\future\\types\\newobject.py',
   'PYMODULE'),
  ('future.types.newrange',
   'c:\\python27\\lib\\site-packages\\future\\types\\newrange.py',
   'PYMODULE'),
  ('future.backports.misc',
   'c:\\python27\\lib\\site-packages\\future\\backports\\misc.py',
   'PYMODULE'),
  ('future.backports',
   'c:\\python27\\lib\\site-packages\\future\\backports\\__init__.py',
   'PYMODULE'),
  ('future.standard_library',
   'c:\\python27\\lib\\site-packages\\future\\standard_library\\__init__.py',
   'PYMODULE'),
  ('importlib', 'c:\\python27\\lib\\importlib\\__init__.py', 'PYMODULE'),
  ('future.moves.dbm.ndbm',
   'c:\\python27\\lib\\site-packages\\future\\moves\\dbm\\ndbm.py',
   'PYMODULE'),
  ('future.moves.dbm.gnu',
   'c:\\python27\\lib\\site-packages\\future\\moves\\dbm\\gnu.py',
   'PYMODULE'),
  ('future.moves.dbm.dumb',
   'c:\\python27\\lib\\site-packages\\future\\moves\\dbm\\dumb.py',
   'PYMODULE'),
  ('dumbdbm', 'c:\\python27\\lib\\dumbdbm.py', 'PYMODULE'),
  ('future.moves.dbm',
   'c:\\python27\\lib\\site-packages\\future\\moves\\dbm\\__init__.py',
   'PYMODULE'),
  ('future.moves',
   'c:\\python27\\lib\\site-packages\\future\\moves\\__init__.py',
   'PYMODULE'),
  ('anydbm', 'c:\\python27\\lib\\anydbm.py', 'PYMODULE'),
  ('dbhash', 'c:\\python27\\lib\\dbhash.py', 'PYMODULE'),
  ('bsddb', 'c:\\python27\\lib\\bsddb\\__init__.py', 'PYMODULE'),
  ('bsddb.dbutils', 'c:\\python27\\lib\\bsddb\\dbutils.py', 'PYMODULE'),
  ('bsddb.db', 'c:\\python27\\lib\\bsddb\\db.py', 'PYMODULE'),
  ('whichdb', 'c:\\python27\\lib\\whichdb.py', 'PYMODULE'),
  ('future.moves.test.support',
   'c:\\python27\\lib\\site-packages\\future\\moves\\test\\support.py',
   'PYMODULE'),
  ('test.test_support',
   'c:\\python27\\lib\\test\\test_support.py',
   'PYMODULE'),
  ('urllib2', 'c:\\python27\\lib\\urllib2.py', 'PYMODULE'),
  ('cookielib', 'c:\\python27\\lib\\cookielib.py', 'PYMODULE'),
  ('_MozillaCookieJar',
   'c:\\python27\\lib\\_MozillaCookieJar.py',
   'PYMODULE'),
  ('_LWPCookieJar', 'c:\\python27\\lib\\_LWPCookieJar.py', 'PYMODULE'),
  ('dummy_threading', 'c:\\python27\\lib\\dummy_threading.py', 'PYMODULE'),
  ('bisect', 'c:\\python27\\lib\\bisect.py', 'PYMODULE'),
  ('ctypes.util', 'c:\\python27\\lib\\ctypes\\util.py', 'PYMODULE'),
  ('ctypes.macholib.dyld',
   'c:\\python27\\lib\\ctypes\\macholib\\dyld.py',
   'PYMODULE'),
  ('ctypes.macholib',
   'c:\\python27\\lib\\ctypes\\macholib\\__init__.py',
   'PYMODULE'),
  ('ctypes.macholib.dylib',
   'c:\\python27\\lib\\ctypes\\macholib\\dylib.py',
   'PYMODULE'),
  ('ctypes.macholib.framework',
   'c:\\python27\\lib\\ctypes\\macholib\\framework.py',
   'PYMODULE'),
  ('future.moves.test',
   'c:\\python27\\lib\\site-packages\\future\\moves\\test\\__init__.py',
   'PYMODULE'),
  ('test', 'c:\\python27\\lib\\test\\__init__.py', 'PYMODULE'),
  ('future.backports.urllib.robotparser',
   'c:\\python27\\lib\\site-packages\\future\\backports\\urllib\\robotparser.py',
   'PYMODULE'),
  ('future.backports.urllib.error',
   'c:\\python27\\lib\\site-packages\\future\\backports\\urllib\\error.py',
   'PYMODULE'),
  ('future.backports.urllib.parse',
   'c:\\python27\\lib\\site-packages\\future\\backports\\urllib\\parse.py',
   'PYMODULE'),
  ('future.backports.urllib.response',
   'c:\\python27\\lib\\site-packages\\future\\backports\\urllib\\response.py',
   'PYMODULE'),
  ('future.backports.urllib.request',
   'c:\\python27\\lib\\site-packages\\future\\backports\\urllib\\request.py',
   'PYMODULE'),
  ('future.backports.email.utils',
   'c:\\python27\\lib\\site-packages\\future\\backports\\email\\utils.py',
   'PYMODULE'),
  ('future.backports.email.charset',
   'c:\\python27\\lib\\site-packages\\future\\backports\\email\\charset.py',
   'PYMODULE'),
  ('future.backports.email.errors',
   'c:\\python27\\lib\\site-packages\\future\\backports\\email\\errors.py',
   'PYMODULE'),
  ('future.backports.email.encoders',
   'c:\\python27\\lib\\site-packages\\future\\backports\\email\\encoders.py',
   'PYMODULE'),
  ('future.backports.email._parseaddr',
   'c:\\python27\\lib\\site-packages\\future\\backports\\email\\_parseaddr.py',
   'PYMODULE'),
  ('future.backports.http.cookiejar',
   'c:\\python27\\lib\\site-packages\\future\\backports\\http\\cookiejar.py',
   'PYMODULE'),
  ('future.backports.http.client',
   'c:\\python27\\lib\\site-packages\\future\\backports\\http\\client.py',
   'PYMODULE'),
  ('future.backports.email.message',
   'c:\\python27\\lib\\site-packages\\future\\backports\\email\\message.py',
   'PYMODULE'),
  ('future.backports.email.iterators',
   'c:\\python27\\lib\\site-packages\\future\\backports\\email\\iterators.py',
   'PYMODULE'),
  ('future.backports.email.generator',
   'c:\\python27\\lib\\site-packages\\future\\backports\\email\\generator.py',
   'PYMODULE'),
  ('future.backports.email.header',
   'c:\\python27\\lib\\site-packages\\future\\backports\\email\\header.py',
   'PYMODULE'),
  ('future.backports.email.quoprimime',
   'c:\\python27\\lib\\site-packages\\future\\backports\\email\\quoprimime.py',
   'PYMODULE'),
  ('future.backports.email.base64mime',
   'c:\\python27\\lib\\site-packages\\future\\backports\\email\\base64mime.py',
   'PYMODULE'),
  ('future.backports.email._encoded_words',
   'c:\\python27\\lib\\site-packages\\future\\backports\\email\\_encoded_words.py',
   'PYMODULE'),
  ('future.backports.email._policybase',
   'c:\\python27\\lib\\site-packages\\future\\backports\\email\\_policybase.py',
   'PYMODULE'),
  ('future.backports.email.parser',
   'c:\\python27\\lib\\site-packages\\future\\backports\\email\\parser.py',
   'PYMODULE'),
  ('future.backports.email.feedparser',
   'c:\\python27\\lib\\site-packages\\future\\backports\\email\\feedparser.py',
   'PYMODULE'),
  ('future.backports.http',
   'c:\\python27\\lib\\site-packages\\future\\backports\\http\\__init__.py',
   'PYMODULE'),
  ('future.backports.urllib',
   'c:\\python27\\lib\\site-packages\\future\\backports\\urllib\\__init__.py',
   'PYMODULE'),
  ('future.backports.email',
   'c:\\python27\\lib\\site-packages\\future\\backports\\email\\__init__.py',
   'PYMODULE'),
  ('future.backports.datetime',
   'c:\\python27\\lib\\site-packages\\future\\backports\\datetime.py',
   'PYMODULE'),
  ('reprlib',
   'c:\\python27\\lib\\site-packages\\reprlib\\__init__.py',
   'PYMODULE'),
  ('_dummy_thread',
   'c:\\python27\\lib\\site-packages\\_dummy_thread\\__init__.py',
   'PYMODULE'),
  ('_thread',
   'c:\\python27\\lib\\site-packages\\_thread\\__init__.py',
   'PYMODULE'),
  ('future.types.newlist',
   'c:\\python27\\lib\\site-packages\\future\\types\\newlist.py',
   'PYMODULE'),
  ('future.types.newint',
   'c:\\python27\\lib\\site-packages\\future\\types\\newint.py',
   'PYMODULE'),
  ('future.types.newdict',
   'c:\\python27\\lib\\site-packages\\future\\types\\newdict.py',
   'PYMODULE'),
  ('future.types',
   'c:\\python27\\lib\\site-packages\\future\\types\\__init__.py',
   'PYMODULE'),
  ('future.utils',
   'c:\\python27\\lib\\site-packages\\future\\utils\\__init__.py',
   'PYMODULE'),
  ('future.builtins.misc',
   'c:\\python27\\lib\\site-packages\\future\\builtins\\misc.py',
   'PYMODULE'),
  ('future.builtins.newsuper',
   'c:\\python27\\lib\\site-packages\\future\\builtins\\newsuper.py',
   'PYMODULE'),
  ('future.builtins.newround',
   'c:\\python27\\lib\\site-packages\\future\\builtins\\newround.py',
   'PYMODULE'),
  ('decimal', 'c:\\python27\\lib\\decimal.py', 'PYMODULE'),
  ('future.builtins.newnext',
   'c:\\python27\\lib\\site-packages\\future\\builtins\\newnext.py',
   'PYMODULE'),
  ('future.builtins.iterators',
   'c:\\python27\\lib\\site-packages\\future\\builtins\\iterators.py',
   'PYMODULE'),
  ('future',
   'c:\\python27\\lib\\site-packages\\future\\__init__.py',
   'PYMODULE'),
  ('numpy.core._internal',
   'c:\\python27\\lib\\site-packages\\numpy\\core\\_internal.py',
   'PYMODULE'),
  ('numpy.compat',
   'c:\\python27\\lib\\site-packages\\numpy\\compat\\__init__.py',
   'PYMODULE'),
  ('numpy.compat.py3k',
   'c:\\python27\\lib\\site-packages\\numpy\\compat\\py3k.py',
   'PYMODULE'),
  ('numpy.compat._inspect',
   'c:\\python27\\lib\\site-packages\\numpy\\compat\\_inspect.py',
   'PYMODULE'),
  ('numpy.core.numerictypes',
   'c:\\python27\\lib\\site-packages\\numpy\\core\\numerictypes.py',
   'PYMODULE'),
  ('numpy.lib',
   'c:\\python27\\lib\\site-packages\\numpy\\lib\\__init__.py',
   'PYMODULE'),
  ('numpy.lib._version',
   'c:\\python27\\lib\\site-packages\\numpy\\lib\\_version.py',
   'PYMODULE'),
  ('numpy.lib.arraypad',
   'c:\\python27\\lib\\site-packages\\numpy\\lib\\arraypad.py',
   'PYMODULE'),
  ('numpy.lib.arrayterator',
   'c:\\python27\\lib\\site-packages\\numpy\\lib\\arrayterator.py',
   'PYMODULE'),
  ('numpy.lib.financial',
   'c:\\python27\\lib\\site-packages\\numpy\\lib\\financial.py',
   'PYMODULE'),
  ('numpy.lib.npyio',
   'c:\\python27\\lib\\site-packages\\numpy\\lib\\npyio.py',
   'PYMODULE'),
  ('numpy.ma.mrecords',
   'c:\\python27\\lib\\site-packages\\numpy\\ma\\mrecords.py',
   'PYMODULE'),
  ('numpy.core.records',
   'c:\\python27\\lib\\site-packages\\numpy\\core\\records.py',
   'PYMODULE'),
  ('numpy.ma',
   'c:\\python27\\lib\\site-packages\\numpy\\ma\\__init__.py',
   'PYMODULE'),
  ('numpy.ma.extras',
   'c:\\python27\\lib\\site-packages\\numpy\\ma\\extras.py',
   'PYMODULE'),
  ('numpy.ma.core',
   'c:\\python27\\lib\\site-packages\\numpy\\ma\\core.py',
   'PYMODULE'),
  ('numpy.lib._iotools',
   'c:\\python27\\lib\\site-packages\\numpy\\lib\\_iotools.py',
   'PYMODULE'),
  ('numpy.lib._datasource',
   'c:\\python27\\lib\\site-packages\\numpy\\lib\\_datasource.py',
   'PYMODULE'),
  ('numpy.lib.format',
   'c:\\python27\\lib\\site-packages\\numpy\\lib\\format.py',
   'PYMODULE'),
  ('numpy.lib.arraysetops',
   'c:\\python27\\lib\\site-packages\\numpy\\lib\\arraysetops.py',
   'PYMODULE'),
  ('numpy.lib.polynomial',
   'c:\\python27\\lib\\site-packages\\numpy\\lib\\polynomial.py',
   'PYMODULE'),
  ('numpy.linalg',
   'c:\\python27\\lib\\site-packages\\numpy\\linalg\\__init__.py',
   'PYMODULE'),
  ('numpy.linalg.linalg',
   'c:\\python27\\lib\\site-packages\\numpy\\linalg\\linalg.py',
   'PYMODULE'),
  ('numpy.matrixlib.defmatrix',
   'c:\\python27\\lib\\site-packages\\numpy\\matrixlib\\defmatrix.py',
   'PYMODULE'),
  ('numpy.matrixlib',
   'c:\\python27\\lib\\site-packages\\numpy\\matrixlib\\__init__.py',
   'PYMODULE'),
  ('numpy.dual',
   'c:\\python27\\lib\\site-packages\\numpy\\dual.py',
   'PYMODULE'),
  ('numpy.fft',
   'c:\\python27\\lib\\site-packages\\numpy\\fft\\__init__.py',
   'PYMODULE'),
  ('numpy.fft.helper',
   'c:\\python27\\lib\\site-packages\\numpy\\fft\\helper.py',
   'PYMODULE'),
  ('numpy.fft.fftpack',
   'c:\\python27\\lib\\site-packages\\numpy\\fft\\fftpack.py',
   'PYMODULE'),
  ('numpy.fft.info',
   'c:\\python27\\lib\\site-packages\\numpy\\fft\\info.py',
   'PYMODULE'),
  ('numpy.linalg.info',
   'c:\\python27\\lib\\site-packages\\numpy\\linalg\\info.py',
   'PYMODULE'),
  ('numpy.lib.scimath',
   'c:\\python27\\lib\\site-packages\\numpy\\lib\\scimath.py',
   'PYMODULE'),
  ('numpy.lib.ufunclike',
   'c:\\python27\\lib\\site-packages\\numpy\\lib\\ufunclike.py',
   'PYMODULE'),
  ('numpy.lib.twodim_base',
   'c:\\python27\\lib\\site-packages\\numpy\\lib\\twodim_base.py',
   'PYMODULE'),
  ('numpy.lib.stride_tricks',
   'c:\\python27\\lib\\site-packages\\numpy\\lib\\stride_tricks.py',
   'PYMODULE'),
  ('numpy.lib.shape_base',
   'c:\\python27\\lib\\site-packages\\numpy\\lib\\shape_base.py',
   'PYMODULE'),
  ('numpy.lib.nanfunctions',
   'c:\\python27\\lib\\site-packages\\numpy\\lib\\nanfunctions.py',
   'PYMODULE'),
  ('numpy.lib.index_tricks',
   'c:\\python27\\lib\\site-packages\\numpy\\lib\\index_tricks.py',
   'PYMODULE'),
  ('numpy.lib.function_base',
   'c:\\python27\\lib\\site-packages\\numpy\\lib\\function_base.py',
   'PYMODULE'),
  ('numpy.lib.type_check',
   'c:\\python27\\lib\\site-packages\\numpy\\lib\\type_check.py',
   'PYMODULE'),
  ('numpy.core.getlimits',
   'c:\\python27\\lib\\site-packages\\numpy\\core\\getlimits.py',
   'PYMODULE'),
  ('numpy.core.machar',
   'c:\\python27\\lib\\site-packages\\numpy\\core\\machar.py',
   'PYMODULE'),
  ('numpy.version',
   'c:\\python27\\lib\\site-packages\\numpy\\version.py',
   'PYMODULE'),
  ('numpy.lib.info',
   'c:\\python27\\lib\\site-packages\\numpy\\lib\\info.py',
   'PYMODULE'),
  ('numpy.lib.utils',
   'c:\\python27\\lib\\site-packages\\numpy\\lib\\utils.py',
   'PYMODULE'),
  ('pydoc', 'c:\\python27\\lib\\pydoc.py', 'PYMODULE'),
  ('webbrowser', 'c:\\python27\\lib\\webbrowser.py', 'PYMODULE'),
  ('BaseHTTPServer', 'c:\\python27\\lib\\BaseHTTPServer.py', 'PYMODULE'),
  ('SocketServer', 'c:\\python27\\lib\\SocketServer.py', 'PYMODULE'),
  ('formatter', 'c:\\python27\\lib\\formatter.py', 'PYMODULE'),
  ('pydoc_data.topics',
   'c:\\python27\\lib\\pydoc_data\\topics.py',
   'PYMODULE'),
  ('pydoc_data', 'c:\\python27\\lib\\pydoc_data\\__init__.py', 'PYMODULE'),
  ('tty', 'c:\\python27\\lib\\tty.py', 'PYMODULE'),
  ('numpy.core',
   'c:\\python27\\lib\\site-packages\\numpy\\core\\__init__.py',
   'PYMODULE'),
  ('copyreg',
   'c:\\python27\\lib\\site-packages\\copyreg\\__init__.py',
   'PYMODULE'),
  ('numpy.core.shape_base',
   'c:\\python27\\lib\\site-packages\\numpy\\core\\shape_base.py',
   'PYMODULE'),
  ('numpy.core.function_base',
   'c:\\python27\\lib\\site-packages\\numpy\\core\\function_base.py',
   'PYMODULE'),
  ('numpy.core.memmap',
   'c:\\python27\\lib\\site-packages\\numpy\\core\\memmap.py',
   'PYMODULE'),
  ('numpy.core.defchararray',
   'c:\\python27\\lib\\site-packages\\numpy\\core\\defchararray.py',
   'PYMODULE'),
  ('numpy.core.info',
   'c:\\python27\\lib\\site-packages\\numpy\\core\\info.py',
   'PYMODULE'),
  ('distutils.version',
   'c:\\python27\\lib\\distutils\\version.py',
   'PYMODULE'),
  ('numpy',
   'c:\\python27\\lib\\site-packages\\numpy\\__init__.py',
   'PYMODULE'),
  ('numpy.ctypeslib',
   'c:\\python27\\lib\\site-packages\\numpy\\ctypeslib.py',
   'PYMODULE'),
  ('numpy.distutils.misc_util',
   'c:\\python27\\lib\\site-packages\\numpy\\distutils\\misc_util.py',
   'PYMODULE'),
  ('distutils.msvccompiler',
   'c:\\python27\\lib\\distutils\\msvccompiler.py',
   'PYMODULE'),
  ('distutils.msvc9compiler',
   'c:\\python27\\lib\\distutils\\msvc9compiler.py',
   'PYMODULE'),
  ('numpy.distutils.npy_pkg_config',
   'c:\\python27\\lib\\site-packages\\numpy\\distutils\\npy_pkg_config.py',
   'PYMODULE'),
  ('configparser',
   'c:\\python27\\lib\\site-packages\\configparser\\__init__.py',
   'PYMODULE'),
  ('distutils.core', 'c:\\python27\\lib\\distutils\\core.py', 'PYMODULE'),
  ('distutils.extension',
   'c:\\python27\\lib\\distutils\\extension.py',
   'PYMODULE'),
  ('distutils.config', 'c:\\python27\\lib\\distutils\\config.py', 'PYMODULE'),
  ('distutils.cmd', 'c:\\python27\\lib\\distutils\\cmd.py', 'PYMODULE'),
  ('distutils.dist', 'c:\\python27\\lib\\distutils\\dist.py', 'PYMODULE'),
  ('distutils.versionpredicate',
   'c:\\python27\\lib\\distutils\\versionpredicate.py',
   'PYMODULE'),
  ('distutils.command',
   'c:\\python27\\lib\\distutils\\command\\__init__.py',
   'PYMODULE'),
  ('distutils.command.build_ext',
   'c:\\python27\\lib\\distutils\\command\\build_ext.py',
   'PYMODULE'),
  ('site',
   'c:\\python27\\lib\\site-packages\\PyInstaller\\fake-modules\\site.py',
   'PYMODULE'),
  ('numpy.distutils.system_info',
   'c:\\python27\\lib\\site-packages\\numpy\\distutils\\system_info.py',
   'PYMODULE'),
  ('numpy.f2py',
   'c:\\python27\\lib\\site-packages\\numpy\\f2py\\__init__.py',
   'PYMODULE'),
  ('numpy.f2py.diagnose',
   'c:\\python27\\lib\\site-packages\\numpy\\f2py\\diagnose.py',
   'PYMODULE'),
  ('numpy.distutils.fcompiler',
   'c:\\python27\\lib\\site-packages\\numpy\\distutils\\fcompiler\\__init__.py',
   'PYMODULE'),
  ('numpy.distutils.command.config_compiler',
   'c:\\python27\\lib\\site-packages\\numpy\\distutils\\command\\config_compiler.py',
   'PYMODULE'),
  ('numpy.distutils.command',
   'c:\\python27\\lib\\site-packages\\numpy\\distutils\\command\\__init__.py',
   'PYMODULE'),
  ('numpy.distutils.command.develop',
   'c:\\python27\\lib\\site-packages\\numpy\\distutils\\command\\develop.py',
   'PYMODULE'),
  ('setuptools.command.develop',
   'c:\\python27\\lib\\site-packages\\setuptools\\command\\develop.py',
   'PYMODULE'),
  ('setuptools.command',
   'c:\\python27\\lib\\site-packages\\setuptools\\command\\__init__.py',
   'PYMODULE'),
  ('setuptools.command.install_scripts',
   'c:\\python27\\lib\\site-packages\\setuptools\\command\\install_scripts.py',
   'PYMODULE'),
  ('distutils.command.install_scripts',
   'c:\\python27\\lib\\distutils\\command\\install_scripts.py',
   'PYMODULE'),
  ('setuptools.command.egg_info',
   'c:\\python27\\lib\\site-packages\\setuptools\\command\\egg_info.py',
   'PYMODULE'),
  ('setuptools.unicode_utils',
   'c:\\python27\\lib\\site-packages\\setuptools\\unicode_utils.py',
   'PYMODULE'),
  ('setuptools.command.sdist',
   'c:\\python27\\lib\\site-packages\\setuptools\\command\\sdist.py',
   'PYMODULE'),
  ('setuptools.utils',
   'c:\\python27\\lib\\site-packages\\setuptools\\utils.py',
   'PYMODULE'),
  ('distutils.command.sdist',
   'c:\\python27\\lib\\distutils\\command\\sdist.py',
   'PYMODULE'),
  ('distutils.filelist',
   'c:\\python27\\lib\\distutils\\filelist.py',
   'PYMODULE'),
  ('setuptools.command.bdist_egg',
   'c:\\python27\\lib\\site-packages\\setuptools\\command\\bdist_egg.py',
   'PYMODULE'),
  ('setuptools.extension',
   'c:\\python27\\lib\\site-packages\\setuptools\\extension.py',
   'PYMODULE'),
  ('setuptools.msvc9_support',
   'c:\\python27\\lib\\site-packages\\setuptools\\msvc9_support.py',
   'PYMODULE'),
  ('setuptools.dist',
   'c:\\python27\\lib\\site-packages\\setuptools\\dist.py',
   'PYMODULE'),
  ('setuptools.windows_support',
   'c:\\python27\\lib\\site-packages\\setuptools\\windows_support.py',
   'PYMODULE'),
  ('setuptools.depends',
   'c:\\python27\\lib\\site-packages\\setuptools\\depends.py',
   'PYMODULE'),
  ('setuptools.command.setopt',
   'c:\\python27\\lib\\site-packages\\setuptools\\command\\setopt.py',
   'PYMODULE'),
  ('distutils.command.bdist',
   'c:\\python27\\lib\\distutils\\command\\bdist.py',
   'PYMODULE'),
  ('setuptools',
   'c:\\python27\\lib\\site-packages\\setuptools\\__init__.py',
   'PYMODULE'),
  ('setuptools.ssl_support',
   'c:\\python27\\lib\\site-packages\\setuptools\\ssl_support.py',
   'PYMODULE'),
  ('setuptools.version',
   'c:\\python27\\lib\\site-packages\\setuptools\\version.py',
   'PYMODULE'),
  ('setuptools.compat',
   'c:\\python27\\lib\\site-packages\\setuptools\\compat.py',
   'PYMODULE'),
  ('http.server',
   'c:\\python27\\lib\\site-packages\\http\\server.py',
   'PYMODULE'),
  ('http', 'c:\\python27\\lib\\site-packages\\http\\__init__.py', 'PYMODULE'),
  ('CGIHTTPServer', 'c:\\python27\\lib\\CGIHTTPServer.py', 'PYMODULE'),
  ('http.client',
   'c:\\python27\\lib\\site-packages\\http\\client.py',
   'PYMODULE'),
  ('html.entities',
   'c:\\python27\\lib\\site-packages\\html\\entities.py',
   'PYMODULE'),
  ('future.moves.html.entities',
   'c:\\python27\\lib\\site-packages\\future\\moves\\html\\entities.py',
   'PYMODULE'),
  ('future.moves.html',
   'c:\\python27\\lib\\site-packages\\future\\moves\\html\\__init__.py',
   'PYMODULE'),
  ('html', 'c:\\python27\\lib\\site-packages\\html\\__init__.py', 'PYMODULE'),
  ('SimpleHTTPServer', 'c:\\python27\\lib\\SimpleHTTPServer.py', 'PYMODULE'),
  ('cgi', 'c:\\python27\\lib\\cgi.py', 'PYMODULE'),
  ('htmlentitydefs', 'c:\\python27\\lib\\htmlentitydefs.py', 'PYMODULE'),
  ('setuptools.command.easy_install',
   'c:\\python27\\lib\\site-packages\\setuptools\\command\\easy_install.py',
   'PYMODULE'),
  ('setuptools.package_index',
   'c:\\python27\\lib\\site-packages\\setuptools\\package_index.py',
   'PYMODULE'),
  ('setuptools.py27compat',
   'c:\\python27\\lib\\site-packages\\setuptools\\py27compat.py',
   'PYMODULE'),
  ('setuptools.py26compat',
   'c:\\python27\\lib\\site-packages\\setuptools\\py26compat.py',
   'PYMODULE'),
  ('setuptools.archive_util',
   'c:\\python27\\lib\\site-packages\\setuptools\\archive_util.py',
   'PYMODULE'),
  ('setuptools.py31compat',
   'c:\\python27\\lib\\site-packages\\setuptools\\py31compat.py',
   'PYMODULE'),
  ('setuptools.sandbox',
   'c:\\python27\\lib\\site-packages\\setuptools\\sandbox.py',
   'PYMODULE'),
  ('distutils.command.build_scripts',
   'c:\\python27\\lib\\distutils\\command\\build_scripts.py',
   'PYMODULE'),
  ('distutils.command.install',
   'c:\\python27\\lib\\distutils\\command\\install.py',
   'PYMODULE'),
  ('numpy.distutils.command.egg_info',
   'c:\\python27\\lib\\site-packages\\numpy\\distutils\\command\\egg_info.py',
   'PYMODULE'),
  ('numpy.distutils.command.build_ext',
   'c:\\python27\\lib\\site-packages\\numpy\\distutils\\command\\build_ext.py',
   'PYMODULE'),
  ('numpy.distutils.command.build_clib',
   'c:\\python27\\lib\\site-packages\\numpy\\distutils\\command\\build_clib.py',
   'PYMODULE'),
  ('distutils.command.build_clib',
   'c:\\python27\\lib\\distutils\\command\\build_clib.py',
   'PYMODULE'),
  ('numpy.distutils.command.install',
   'c:\\python27\\lib\\site-packages\\numpy\\distutils\\command\\install.py',
   'PYMODULE'),
  ('setuptools.command.install',
   'c:\\python27\\lib\\site-packages\\setuptools\\command\\install.py',
   'PYMODULE'),
  ('numpy.distutils.command.build',
   'c:\\python27\\lib\\site-packages\\numpy\\distutils\\command\\build.py',
   'PYMODULE'),
  ('distutils.command.build',
   'c:\\python27\\lib\\distutils\\command\\build.py',
   'PYMODULE'),
  ('numpy.distutils.command.build_src',
   'c:\\python27\\lib\\site-packages\\numpy\\distutils\\command\\build_src.py',
   'PYMODULE'),
  ('numpy.distutils.conv_template',
   'c:\\python27\\lib\\site-packages\\numpy\\distutils\\conv_template.py',
   'PYMODULE'),
  ('numpy.distutils.from_template',
   'c:\\python27\\lib\\site-packages\\numpy\\distutils\\from_template.py',
   'PYMODULE'),
  ('numpy.distutils.command.install_clib',
   'c:\\python27\\lib\\site-packages\\numpy\\distutils\\command\\install_clib.py',
   'PYMODULE'),
  ('numpy.distutils.command.install_headers',
   'c:\\python27\\lib\\site-packages\\numpy\\distutils\\command\\install_headers.py',
   'PYMODULE'),
  ('distutils.command.install_headers',
   'c:\\python27\\lib\\distutils\\command\\install_headers.py',
   'PYMODULE'),
  ('numpy.distutils.command.sdist',
   'c:\\python27\\lib\\site-packages\\numpy\\distutils\\command\\sdist.py',
   'PYMODULE'),
  ('numpy.distutils.command.build_scripts',
   'c:\\python27\\lib\\site-packages\\numpy\\distutils\\command\\build_scripts.py',
   'PYMODULE'),
  ('numpy.distutils.command.install_data',
   'c:\\python27\\lib\\site-packages\\numpy\\distutils\\command\\install_data.py',
   'PYMODULE'),
  ('distutils.command.install_data',
   'c:\\python27\\lib\\distutils\\command\\install_data.py',
   'PYMODULE'),
  ('numpy.distutils.command.build_py',
   'c:\\python27\\lib\\site-packages\\numpy\\distutils\\command\\build_py.py',
   'PYMODULE'),
  ('distutils.command.build_py',
   'c:\\python27\\lib\\distutils\\command\\build_py.py',
   'PYMODULE'),
  ('numpy.distutils.command.bdist_rpm',
   'c:\\python27\\lib\\site-packages\\numpy\\distutils\\command\\bdist_rpm.py',
   'PYMODULE'),
  ('distutils.command.bdist_rpm',
   'c:\\python27\\lib\\distutils\\command\\bdist_rpm.py',
   'PYMODULE'),
  ('setuptools.command.bdist_rpm',
   'c:\\python27\\lib\\site-packages\\setuptools\\command\\bdist_rpm.py',
   'PYMODULE'),
  ('numpy.distutils.environment',
   'c:\\python27\\lib\\site-packages\\numpy\\distutils\\environment.py',
   'PYMODULE'),
  ('numpy.distutils.log',
   'c:\\python27\\lib\\site-packages\\numpy\\distutils\\log.py',
   'PYMODULE'),
  ('numpy.distutils.ccompiler',
   'c:\\python27\\lib\\site-packages\\numpy\\distutils\\ccompiler.py',
   'PYMODULE'),
  ('multiprocessing.pool',
   'c:\\python27\\lib\\multiprocessing\\pool.py',
   'PYMODULE'),
  ('multiprocessing.dummy',
   'c:\\python27\\lib\\multiprocessing\\dummy\\__init__.py',
   'PYMODULE'),
  ('multiprocessing.dummy.connection',
   'c:\\python27\\lib\\multiprocessing\\dummy\\connection.py',
   'PYMODULE'),
  ('multiprocessing.queues',
   'c:\\python27\\lib\\multiprocessing\\queues.py',
   'PYMODULE'),
  ('multiprocessing.forking',
   'c:\\python27\\lib\\multiprocessing\\forking.py',
   'PYMODULE'),
  ('multiprocessing.process',
   'c:\\python27\\lib\\multiprocessing\\process.py',
   'PYMODULE'),
  ('multiprocessing.synchronize',
   'c:\\python27\\lib\\multiprocessing\\synchronize.py',
   'PYMODULE'),
  ('multiprocessing.util',
   'c:\\python27\\lib\\multiprocessing\\util.py',
   'PYMODULE'),
  ('multiprocessing',
   'c:\\python27\\lib\\multiprocessing\\__init__.py',
   'PYMODULE'),
  ('multiprocessing.sharedctypes',
   'c:\\python27\\lib\\multiprocessing\\sharedctypes.py',
   'PYMODULE'),
  ('multiprocessing.heap',
   'c:\\python27\\lib\\multiprocessing\\heap.py',
   'PYMODULE'),
  ('multiprocessing.reduction',
   'c:\\python27\\lib\\multiprocessing\\reduction.py',
   'PYMODULE'),
  ('multiprocessing.managers',
   'c:\\python27\\lib\\multiprocessing\\managers.py',
   'PYMODULE'),
  ('multiprocessing.connection',
   'c:\\python27\\lib\\multiprocessing\\connection.py',
   'PYMODULE'),
  ('xmlrpclib', 'c:\\python27\\lib\\xmlrpclib.py', 'PYMODULE'),
  ('xmllib', 'c:\\python27\\lib\\xmllib.py', 'PYMODULE'),
  ('hmac', 'c:\\python27\\lib\\hmac.py', 'PYMODULE'),
  ('Queue', 'c:\\python27\\lib\\Queue.py', 'PYMODULE'),
  ('numpy.f2py.f2py_testing',
   'c:\\python27\\lib\\site-packages\\numpy\\f2py\\f2py_testing.py',
   'PYMODULE'),
  ('numpy.f2py.f2py2e',
   'c:\\python27\\lib\\site-packages\\numpy\\f2py\\f2py2e.py',
   'PYMODULE'),
  ('numpy.f2py.auxfuncs',
   'c:\\python27\\lib\\site-packages\\numpy\\f2py\\auxfuncs.py',
   'PYMODULE'),
  ('numpy.f2py.f90mod_rules',
   'c:\\python27\\lib\\site-packages\\numpy\\f2py\\f90mod_rules.py',
   'PYMODULE'),
  ('numpy.f2py.rules',
   'c:\\python27\\lib\\site-packages\\numpy\\f2py\\rules.py',
   'PYMODULE'),
  ('numpy.f2py.use_rules',
   'c:\\python27\\lib\\site-packages\\numpy\\f2py\\use_rules.py',
   'PYMODULE'),
  ('numpy.f2py.common_rules',
   'c:\\python27\\lib\\site-packages\\numpy\\f2py\\common_rules.py',
   'PYMODULE'),
  ('numpy.f2py.func2subr',
   'c:\\python27\\lib\\site-packages\\numpy\\f2py\\func2subr.py',
   'PYMODULE'),
  ('numpy.f2py.crackfortran',
   'c:\\python27\\lib\\site-packages\\numpy\\f2py\\crackfortran.py',
   'PYMODULE'),
  ('fileinput', 'c:\\python27\\lib\\fileinput.py', 'PYMODULE'),
  ('numpy.f2py.cb_rules',
   'c:\\python27\\lib\\site-packages\\numpy\\f2py\\cb_rules.py',
   'PYMODULE'),
  ('numpy.f2py.capi_maps',
   'c:\\python27\\lib\\site-packages\\numpy\\f2py\\capi_maps.py',
   'PYMODULE'),
  ('numpy.f2py.cfuncs',
   'c:\\python27\\lib\\site-packages\\numpy\\f2py\\cfuncs.py',
   'PYMODULE'),
  ('numpy.f2py.__version__',
   'c:\\python27\\lib\\site-packages\\numpy\\f2py\\__version__.py',
   'PYMODULE'),
  ('numpy.distutils.cpuinfo',
   'c:\\python27\\lib\\site-packages\\numpy\\distutils\\cpuinfo.py',
   'PYMODULE'),
  ('commands', 'c:\\python27\\lib\\commands.py', 'PYMODULE'),
  ('numpy.distutils.command.config',
   'c:\\python27\\lib\\site-packages\\numpy\\distutils\\command\\config.py',
   'PYMODULE'),
  ('numpy.distutils.command.autodist',
   'c:\\python27\\lib\\site-packages\\numpy\\distutils\\command\\autodist.py',
   'PYMODULE'),
  ('numpy.distutils.mingw32ccompiler',
   'c:\\python27\\lib\\site-packages\\numpy\\distutils\\mingw32ccompiler.py',
   'PYMODULE'),
  ('numpy.distutils.lib2def',
   'c:\\python27\\lib\\site-packages\\numpy\\distutils\\lib2def.py',
   'PYMODULE'),
  ('distutils.unixccompiler',
   'c:\\python27\\lib\\distutils\\unixccompiler.py',
   'PYMODULE'),
  ('distutils.cygwinccompiler',
   'c:\\python27\\lib\\distutils\\cygwinccompiler.py',
   'PYMODULE'),
  ('distutils.command.config',
   'c:\\python27\\lib\\distutils\\command\\config.py',
   'PYMODULE'),
  ('numpy.distutils.exec_command',
   'c:\\python27\\lib\\site-packages\\numpy\\distutils\\exec_command.py',
   'PYMODULE'),
  ('curses', 'c:\\python27\\lib\\curses\\__init__.py', 'PYMODULE'),
  ('curses.has_key', 'c:\\python27\\lib\\curses\\has_key.py', 'PYMODULE'),
  ('curses.wrapper', 'c:\\python27\\lib\\curses\\wrapper.py', 'PYMODULE'),
  ('numpy.distutils.core',
   'c:\\python27\\lib\\site-packages\\numpy\\distutils\\core.py',
   'PYMODULE'),
  ('numpy.distutils.numpy_distribution',
   'c:\\python27\\lib\\site-packages\\numpy\\distutils\\numpy_distribution.py',
   'PYMODULE'),
  ('numpy.distutils.extension',
   'c:\\python27\\lib\\site-packages\\numpy\\distutils\\extension.py',
   'PYMODULE'),
  ('numpy.distutils',
   'c:\\python27\\lib\\site-packages\\numpy\\distutils\\__init__.py',
   'PYMODULE'),
  ('numpy.distutils.__config__',
   'c:\\python27\\lib\\site-packages\\numpy\\distutils\\__config__.py',
   'PYMODULE'),
  ('numpy.distutils.info',
   'c:\\python27\\lib\\site-packages\\numpy\\distutils\\info.py',
   'PYMODULE'),
  ('numpy.distutils.unixccompiler',
   'c:\\python27\\lib\\site-packages\\numpy\\distutils\\unixccompiler.py',
   'PYMODULE'),
  ('numpy.distutils.__version__',
   'c:\\python27\\lib\\site-packages\\numpy\\distutils\\__version__.py',
   'PYMODULE'),
  ('numpy.distutils.compat',
   'c:\\python27\\lib\\site-packages\\numpy\\distutils\\compat.py',
   'PYMODULE'),
  ('sets', 'c:\\python27\\lib\\sets.py', 'PYMODULE'),
  ('numpy.random',
   'c:\\python27\\lib\\site-packages\\numpy\\random\\__init__.py',
   'PYMODULE'),
  ('numpy.random.info',
   'c:\\python27\\lib\\site-packages\\numpy\\random\\info.py',
   'PYMODULE'),
  ('numpy.polynomial',
   'c:\\python27\\lib\\site-packages\\numpy\\polynomial\\__init__.py',
   'PYMODULE'),
  ('numpy.polynomial.laguerre',
   'c:\\python27\\lib\\site-packages\\numpy\\polynomial\\laguerre.py',
   'PYMODULE'),
  ('numpy.polynomial._polybase',
   'c:\\python27\\lib\\site-packages\\numpy\\polynomial\\_polybase.py',
   'PYMODULE'),
  ('numpy.polynomial.hermite_e',
   'c:\\python27\\lib\\site-packages\\numpy\\polynomial\\hermite_e.py',
   'PYMODULE'),
  ('numpy.polynomial.hermite',
   'c:\\python27\\lib\\site-packages\\numpy\\polynomial\\hermite.py',
   'PYMODULE'),
  ('numpy.polynomial.legendre',
   'c:\\python27\\lib\\site-packages\\numpy\\polynomial\\legendre.py',
   'PYMODULE'),
  ('numpy.polynomial.chebyshev',
   'c:\\python27\\lib\\site-packages\\numpy\\polynomial\\chebyshev.py',
   'PYMODULE'),
  ('numpy.polynomial.polynomial',
   'c:\\python27\\lib\\site-packages\\numpy\\polynomial\\polynomial.py',
   'PYMODULE'),
  ('numpy.polynomial.polyutils',
   'c:\\python27\\lib\\site-packages\\numpy\\polynomial\\polyutils.py',
   'PYMODULE'),
  ('numpy.add_newdocs',
   'c:\\python27\\lib\\site-packages\\numpy\\add_newdocs.py',
   'PYMODULE'),
  ('numpy._import_tools',
   'c:\\python27\\lib\\site-packages\\numpy\\_import_tools.py',
   'PYMODULE'),
  ('numpy.__config__',
   'c:\\python27\\lib\\site-packages\\numpy\\__config__.py',
   'PYMODULE'),
  ('numpy.testing.nosetester',
   'c:\\python27\\lib\\site-packages\\numpy\\testing\\nosetester.py',
   'PYMODULE'),
  ('numpy.testing',
   'c:\\python27\\lib\\site-packages\\numpy\\testing\\__init__.py',
   'PYMODULE'),
  ('numpy.testing.decorators',
   'c:\\python27\\lib\\site-packages\\numpy\\testing\\decorators.py',
   'PYMODULE'),
  ('pandas.compat',
   'c:\\python27\\lib\\site-packages\\pandas\\compat\\__init__.py',
   'PYMODULE'),
  ('pandas.compat.pickle_compat',
   'c:\\python27\\lib\\site-packages\\pandas\\compat\\pickle_compat.py',
   'PYMODULE'),
  ('dateutil.parser',
   'c:\\python27\\lib\\site-packages\\dateutil\\parser.py',
   'PYMODULE'),
  ('dateutil.tz',
   'c:\\python27\\lib\\site-packages\\dateutil\\tz\\__init__.py',
   'PYMODULE'),
  ('dateutil.tz.tz',
   'c:\\python27\\lib\\site-packages\\dateutil\\tz\\tz.py',
   'PYMODULE'),
  ('dateutil.zoneinfo',
   'c:\\python27\\lib\\site-packages\\dateutil\\zoneinfo\\__init__.py',
   'PYMODULE'),
  ('json', 'c:\\python27\\lib\\json\\__init__.py', 'PYMODULE'),
  ('json.encoder', 'c:\\python27\\lib\\json\\encoder.py', 'PYMODULE'),
  ('json.decoder', 'c:\\python27\\lib\\json\\decoder.py', 'PYMODULE'),
  ('json.scanner', 'c:\\python27\\lib\\json\\scanner.py', 'PYMODULE'),
  ('dateutil.rrule',
   'c:\\python27\\lib\\site-packages\\dateutil\\rrule.py',
   'PYMODULE'),
  ('dateutil.easter',
   'c:\\python27\\lib\\site-packages\\dateutil\\easter.py',
   'PYMODULE'),
  ('fractions', 'c:\\python27\\lib\\fractions.py', 'PYMODULE'),
  ('dateutil.tz.win',
   'c:\\python27\\lib\\site-packages\\dateutil\\tz\\win.py',
   'PYMODULE'),
  ('dateutil.tz._common',
   'c:\\python27\\lib\\site-packages\\dateutil\\tz\\_common.py',
   'PYMODULE'),
  ('dateutil.relativedelta',
   'c:\\python27\\lib\\site-packages\\dateutil\\relativedelta.py',
   'PYMODULE'),
  ('six', 'c:\\python27\\lib\\site-packages\\six.py', 'PYMODULE'),
  ('dateutil',
   'c:\\python27\\lib\\site-packages\\dateutil\\__init__.py',
   'PYMODULE'),
  ('pandas.compat.chainmap',
   'c:\\python27\\lib\\site-packages\\pandas\\compat\\chainmap.py',
   'PYMODULE'),
  ('pandas.compat.chainmap_impl',
   'c:\\python27\\lib\\site-packages\\pandas\\compat\\chainmap_impl.py',
   'PYMODULE'),
  ('pandas.util.testing',
   'c:\\python27\\lib\\site-packages\\pandas\\util\\testing.py',
   'PYMODULE'),
  ('pytz', 'c:\\python27\\lib\\site-packages\\pytz\\__init__.py', 'PYMODULE'),
  ('pytz.tzfile',
   'c:\\python27\\lib\\site-packages\\pytz\\tzfile.py',
   'PYMODULE'),
  ('pytz.tzinfo',
   'c:\\python27\\lib\\site-packages\\pytz\\tzinfo.py',
   'PYMODULE'),
  ('pytz.lazy',
   'c:\\python27\\lib\\site-packages\\pytz\\lazy.py',
   'PYMODULE'),
  ('pytz.exceptions',
   'c:\\python27\\lib\\site-packages\\pytz\\exceptions.py',
   'PYMODULE'),
  ('matplotlib',
   'c:\\python27\\lib\\site-packages\\matplotlib\\__init__.py',
   'PYMODULE'),
  ('matplotlib.testing.noseclasses',
   'c:\\python27\\lib\\site-packages\\matplotlib\\testing\\noseclasses.py',
   'PYMODULE'),
  ('matplotlib.testing',
   'c:\\python27\\lib\\site-packages\\matplotlib\\testing\\__init__.py',
   'PYMODULE'),
  ('matplotlib.backends.backend_agg',
   'c:\\python27\\lib\\site-packages\\matplotlib\\backends\\backend_agg.py',
   'PYMODULE'),
  ('matplotlib.path',
   'c:\\python27\\lib\\site-packages\\matplotlib\\path.py',
   'PYMODULE'),
  ('matplotlib.hatch',
   'c:\\python27\\lib\\site-packages\\matplotlib\\hatch.py',
   'PYMODULE'),
  ('matplotlib.mathtext',
   'c:\\python27\\lib\\site-packages\\matplotlib\\mathtext.py',
   'PYMODULE'),
  ('matplotlib.colors',
   'c:\\python27\\lib\\site-packages\\matplotlib\\colors.py',
   'PYMODULE'),
  ('matplotlib._mathtext_data',
   'c:\\python27\\lib\\site-packages\\matplotlib\\_mathtext_data.py',
   'PYMODULE'),
  ('matplotlib.font_manager',
   'c:\\python27\\lib\\site-packages\\matplotlib\\font_manager.py',
   'PYMODULE'),
  ('matplotlib.fontconfig_pattern',
   'c:\\python27\\lib\\site-packages\\matplotlib\\fontconfig_pattern.py',
   'PYMODULE'),
  ('matplotlib.figure',
   'c:\\python27\\lib\\site-packages\\matplotlib\\figure.py',
   'PYMODULE'),
  ('matplotlib.tight_layout',
   'c:\\python27\\lib\\site-packages\\matplotlib\\tight_layout.py',
   'PYMODULE'),
  ('matplotlib.backends.backend_webagg',
   'c:\\python27\\lib\\site-packages\\matplotlib\\backends\\backend_webagg.py',
   'PYMODULE'),
  ('matplotlib.backends.backend_webagg_core',
   'c:\\python27\\lib\\site-packages\\matplotlib\\backends\\backend_webagg_core.py',
   'PYMODULE'),
  ('matplotlib.text',
   'c:\\python27\\lib\\site-packages\\matplotlib\\text.py',
   'PYMODULE'),
  ('matplotlib.offsetbox',
   'c:\\python27\\lib\\site-packages\\matplotlib\\offsetbox.py',
   'PYMODULE'),
  ('matplotlib.patheffects',
   'c:\\python27\\lib\\site-packages\\matplotlib\\patheffects.py',
   'PYMODULE'),
  ('matplotlib.textpath',
   'c:\\python27\\lib\\site-packages\\matplotlib\\textpath.py',
   'PYMODULE'),
  ('matplotlib.texmanager',
   'c:\\python27\\lib\\site-packages\\matplotlib\\texmanager.py',
   'PYMODULE'),
  ('matplotlib.dviread',
   'c:\\python27\\lib\\site-packages\\matplotlib\\dviread.py',
   'PYMODULE'),
  ('matplotlib.lines',
   'c:\\python27\\lib\\site-packages\\matplotlib\\lines.py',
   'PYMODULE'),
  ('matplotlib.markers',
   'c:\\python27\\lib\\site-packages\\matplotlib\\markers.py',
   'PYMODULE'),
  ('matplotlib.projections',
   'c:\\python27\\lib\\site-packages\\matplotlib\\projections\\__init__.py',
   'PYMODULE'),
  ('matplotlib.projections.polar',
   'c:\\python27\\lib\\site-packages\\matplotlib\\projections\\polar.py',
   'PYMODULE'),
  ('matplotlib.spines',
   'c:\\python27\\lib\\site-packages\\matplotlib\\spines.py',
   'PYMODULE'),
  ('matplotlib.ticker',
   'c:\\python27\\lib\\site-packages\\matplotlib\\ticker.py',
   'PYMODULE'),
  ('matplotlib.axis',
   'c:\\python27\\lib\\site-packages\\matplotlib\\axis.py',
   'PYMODULE'),
  ('matplotlib.units',
   'c:\\python27\\lib\\site-packages\\matplotlib\\units.py',
   'PYMODULE'),
  ('matplotlib.scale',
   'c:\\python27\\lib\\site-packages\\matplotlib\\scale.py',
   'PYMODULE'),
  ('matplotlib.projections.geo',
   'c:\\python27\\lib\\site-packages\\matplotlib\\projections\\geo.py',
   'PYMODULE'),
  ('matplotlib.patches',
   'c:\\python27\\lib\\site-packages\\matplotlib\\patches.py',
   'PYMODULE'),
  ('matplotlib.bezier',
   'c:\\python27\\lib\\site-packages\\matplotlib\\bezier.py',
   'PYMODULE'),
  ('matplotlib.legend',
   'c:\\python27\\lib\\site-packages\\matplotlib\\legend.py',
   'PYMODULE'),
  ('matplotlib.container',
   'c:\\python27\\lib\\site-packages\\matplotlib\\container.py',
   'PYMODULE'),
  ('matplotlib.collections',
   'c:\\python27\\lib\\site-packages\\matplotlib\\collections.py',
   'PYMODULE'),
  ('matplotlib.mlab',
   'c:\\python27\\lib\\site-packages\\matplotlib\\mlab.py',
   'PYMODULE'),
  ('matplotlib.tri',
   'c:\\python27\\lib\\site-packages\\matplotlib\\tri\\__init__.py',
   'PYMODULE'),
  ('matplotlib.tri.triplot',
   'c:\\python27\\lib\\site-packages\\matplotlib\\tri\\triplot.py',
   'PYMODULE'),
  ('matplotlib.tri.tripcolor',
   'c:\\python27\\lib\\site-packages\\matplotlib\\tri\\tripcolor.py',
   'PYMODULE'),
  ('matplotlib.tri.trirefine',
   'c:\\python27\\lib\\site-packages\\matplotlib\\tri\\trirefine.py',
   'PYMODULE'),
  ('matplotlib.tri.triinterpolate',
   'c:\\python27\\lib\\site-packages\\matplotlib\\tri\\triinterpolate.py',
   'PYMODULE'),
  ('matplotlib.tri.trifinder',
   'c:\\python27\\lib\\site-packages\\matplotlib\\tri\\trifinder.py',
   'PYMODULE'),
  ('matplotlib.tri.tritools',
   'c:\\python27\\lib\\site-packages\\matplotlib\\tri\\tritools.py',
   'PYMODULE'),
  ('matplotlib.tri.tricontour',
   'c:\\python27\\lib\\site-packages\\matplotlib\\tri\\tricontour.py',
   'PYMODULE'),
  ('matplotlib.contour',
   'c:\\python27\\lib\\site-packages\\matplotlib\\contour.py',
   'PYMODULE'),
  ('matplotlib.tri.triangulation',
   'c:\\python27\\lib\\site-packages\\matplotlib\\tri\\triangulation.py',
   'PYMODULE'),
  ('csv', 'c:\\python27\\lib\\csv.py', 'PYMODULE'),
  ('matplotlib.cm',
   'c:\\python27\\lib\\site-packages\\matplotlib\\cm.py',
   'PYMODULE'),
  ('matplotlib._cm_listed',
   'c:\\python27\\lib\\site-packages\\matplotlib\\_cm_listed.py',
   'PYMODULE'),
  ('matplotlib._cm',
   'c:\\python27\\lib\\site-packages\\matplotlib\\_cm.py',
   'PYMODULE'),
  ('matplotlib.blocking_input',
   'c:\\python27\\lib\\site-packages\\matplotlib\\blocking_input.py',
   'PYMODULE'),
  ('matplotlib.axes',
   'c:\\python27\\lib\\site-packages\\matplotlib\\axes\\__init__.py',
   'PYMODULE'),
  ('matplotlib.axes._axes',
   'c:\\python27\\lib\\site-packages\\matplotlib\\axes\\_axes.py',
   'PYMODULE'),
  ('matplotlib.axes._base',
   'c:\\python27\\lib\\site-packages\\matplotlib\\axes\\_base.py',
   'PYMODULE'),
  ('matplotlib.table',
   'c:\\python27\\lib\\site-packages\\matplotlib\\table.py',
   'PYMODULE'),
  ('matplotlib.streamplot',
   'c:\\python27\\lib\\site-packages\\matplotlib\\streamplot.py',
   'PYMODULE'),
  ('matplotlib.stackplot',
   'c:\\python27\\lib\\site-packages\\matplotlib\\stackplot.py',
   'PYMODULE'),
  ('cycler', 'c:\\python27\\lib\\site-packages\\cycler.py', 'PYMODULE'),
  ('matplotlib.quiver',
   'c:\\python27\\lib\\site-packages\\matplotlib\\quiver.py',
   'PYMODULE'),
  ('matplotlib.dates',
   'c:\\python27\\lib\\site-packages\\matplotlib\\dates.py',
   'PYMODULE'),
  ('matplotlib.axes._subplots',
   'c:\\python27\\lib\\site-packages\\matplotlib\\axes\\_subplots.py',
   'PYMODULE'),
  ('matplotlib.gridspec',
   'c:\\python27\\lib\\site-packages\\matplotlib\\gridspec.py',
   'PYMODULE'),
  ('matplotlib.colorbar',
   'c:\\python27\\lib\\site-packages\\matplotlib\\colorbar.py',
   'PYMODULE'),
  ('matplotlib.image',
   'c:\\python27\\lib\\site-packages\\matplotlib\\image.py',
   'PYMODULE'),
  ('matplotlib.artist',
   'c:\\python27\\lib\\site-packages\\matplotlib\\artist.py',
   'PYMODULE'),
  ('matplotlib.backend_bases',
   'c:\\python27\\lib\\site-packages\\matplotlib\\backend_bases.py',
   'PYMODULE'),
  ('matplotlib.backend_tools',
   'c:\\python27\\lib\\site-packages\\matplotlib\\backend_tools.py',
   'PYMODULE'),
  ('matplotlib.tight_bbox',
   'c:\\python27\\lib\\site-packages\\matplotlib\\tight_bbox.py',
   'PYMODULE'),
  ('matplotlib.widgets',
   'c:\\python27\\lib\\site-packages\\matplotlib\\widgets.py',
   'PYMODULE'),
  ('matplotlib.backends.backend_pdf',
   'c:\\python27\\lib\\site-packages\\matplotlib\\backends\\backend_pdf.py',
   'PYMODULE'),
  ('matplotlib.type1font',
   'c:\\python27\\lib\\site-packages\\matplotlib\\type1font.py',
   'PYMODULE'),
  ('matplotlib.backends.backend_mixed',
   'c:\\python27\\lib\\site-packages\\matplotlib\\backends\\backend_mixed.py',
   'PYMODULE'),
  ('matplotlib.backends.backend_svg',
   'c:\\python27\\lib\\site-packages\\matplotlib\\backends\\backend_svg.py',
   'PYMODULE'),
  ('uuid', 'c:\\python27\\lib\\uuid.py', 'PYMODULE'),
  ('netbios',
   'c:\\python27\\lib\\site-packages\\win32\\lib\\netbios.py',
   'PYMODULE'),
  ('matplotlib.backends',
   'c:\\python27\\lib\\site-packages\\matplotlib\\backends\\__init__.py',
   'PYMODULE'),
  ('matplotlib.backends.backend_template',
   'c:\\python27\\lib\\site-packages\\matplotlib\\backends\\backend_template.py',
   'PYMODULE'),
  ('matplotlib.backends.backend_ps',
   'c:\\python27\\lib\\site-packages\\matplotlib\\backends\\backend_ps.py',
   'PYMODULE'),
  ('md5', 'c:\\python27\\lib\\md5.py', 'PYMODULE'),
  ('matplotlib.backends.backend_pgf',
   'c:\\python27\\lib\\site-packages\\matplotlib\\backends\\backend_pgf.py',
   'PYMODULE'),
  ('matplotlib.backends.backend_tkagg',
   'c:\\python27\\lib\\site-packages\\matplotlib\\backends\\backend_tkagg.py',
   'PYMODULE'),
  ('matplotlib.backend_managers',
   'c:\\python27\\lib\\site-packages\\matplotlib\\backend_managers.py',
   'PYMODULE'),
  ('matplotlib.backends.windowing',
   'c:\\python27\\lib\\site-packages\\matplotlib\\backends\\windowing.py',
   'PYMODULE'),
  ('matplotlib.backends.tkagg',
   'c:\\python27\\lib\\site-packages\\matplotlib\\backends\\tkagg.py',
   'PYMODULE'),
  ('matplotlib.testing.exceptions',
   'c:\\python27\\lib\\site-packages\\matplotlib\\testing\\exceptions.py',
   'PYMODULE'),
  ('pyparsing', 'c:\\python27\\lib\\site-packages\\pyparsing.py', 'PYMODULE'),
  ('matplotlib._version',
   'c:\\python27\\lib\\site-packages\\matplotlib\\_version.py',
   'PYMODULE'),
  ('matplotlib.rcsetup',
   'c:\\python27\\lib\\site-packages\\matplotlib\\rcsetup.py',
   'PYMODULE'),
  ('matplotlib.compat.subprocess',
   'c:\\python27\\lib\\site-packages\\matplotlib\\compat\\subprocess.py',
   'PYMODULE'),
  ('matplotlib.compat',
   'c:\\python27\\lib\\site-packages\\matplotlib\\compat\\__init__.py',
   'PYMODULE'),
  ('matplotlib.cbook',
   'c:\\python27\\lib\\site-packages\\matplotlib\\cbook.py',
   'PYMODULE'),
  ('matplotlib.pylab',
   'c:\\python27\\lib\\site-packages\\matplotlib\\pylab.py',
   'PYMODULE'),
  ('matplotlib.finance',
   'c:\\python27\\lib\\site-packages\\matplotlib\\finance.py',
   'PYMODULE'),
  ('matplotlib.style',
   'c:\\python27\\lib\\site-packages\\matplotlib\\style\\__init__.py',
   'PYMODULE'),
  ('matplotlib.style.core',
   'c:\\python27\\lib\\site-packages\\matplotlib\\style\\core.py',
   'PYMODULE'),
  ('matplotlib.legend_handler',
   'c:\\python27\\lib\\site-packages\\matplotlib\\legend_handler.py',
   'PYMODULE'),
  ('matplotlib._pylab_helpers',
   'c:\\python27\\lib\\site-packages\\matplotlib\\_pylab_helpers.py',
   'PYMODULE'),
  ('matplotlib.afm',
   'c:\\python27\\lib\\site-packages\\matplotlib\\afm.py',
   'PYMODULE'),
  ('matplotlib.docstring',
   'c:\\python27\\lib\\site-packages\\matplotlib\\docstring.py',
   'PYMODULE'),
  ('matplotlib.transforms',
   'c:\\python27\\lib\\site-packages\\matplotlib\\transforms.py',
   'PYMODULE'),
  ('matplotlib.externals.six',
   'c:\\python27\\lib\\site-packages\\matplotlib\\externals\\six.py',
   'PYMODULE'),
  ('matplotlib.externals',
   'c:\\python27\\lib\\site-packages\\matplotlib\\externals\\__init__.py',
   'PYMODULE'),
  ('matplotlib.pyplot',
   'c:\\python27\\lib\\site-packages\\matplotlib\\pyplot.py',
   'PYMODULE'),
  ('pandas.io.common',
   'c:\\python27\\lib\\site-packages\\pandas\\io\\common.py',
   'PYMODULE'),
  ('pandas.io',
   'c:\\python27\\lib\\site-packages\\pandas\\io\\__init__.py',
   'PYMODULE'),
  ('pandas.io.gbq',
   'c:\\python27\\lib\\site-packages\\pandas\\io\\gbq.py',
   'PYMODULE'),
  ('pandas.io.clipboard',
   'c:\\python27\\lib\\site-packages\\pandas\\io\\clipboard.py',
   'PYMODULE'),
  ('pandas.io.parsers',
   'c:\\python27\\lib\\site-packages\\pandas\\io\\parsers.py',
   'PYMODULE'),
  ('pandas.tseries.tools',
   'c:\\python27\\lib\\site-packages\\pandas\\tseries\\tools.py',
   'PYMODULE'),
  ('pandas.core.series',
   'c:\\python27\\lib\\site-packages\\pandas\\core\\series.py',
   'PYMODULE'),
  ('pandas.core.groupby',
   'c:\\python27\\lib\\site-packages\\pandas\\core\\groupby.py',
   'PYMODULE'),
  ('pandas.core.window',
   'c:\\python27\\lib\\site-packages\\pandas\\core\\window.py',
   'PYMODULE'),
  ('pandas.tseries.resample',
   'c:\\python27\\lib\\site-packages\\pandas\\tseries\\resample.py',
   'PYMODULE'),
  ('pandas.tseries.frequencies',
   'c:\\python27\\lib\\site-packages\\pandas\\tseries\\frequencies.py',
   'PYMODULE'),
  ('pandas.util.validators',
   'c:\\python27\\lib\\site-packages\\pandas\\util\\validators.py',
   'PYMODULE'),
  ('pandas.core.panel',
   'c:\\python27\\lib\\site-packages\\pandas\\core\\panel.py',
   'PYMODULE'),
  ('pandas.io.excel',
   'c:\\python27\\lib\\site-packages\\pandas\\io\\excel.py',
   'PYMODULE'),
  ('pandas.compat.openpyxl_compat',
   'c:\\python27\\lib\\site-packages\\pandas\\compat\\openpyxl_compat.py',
   'PYMODULE'),
  ('pandas.core.missing',
   'c:\\python27\\lib\\site-packages\\pandas\\core\\missing.py',
   'PYMODULE'),
  ('pandas.core.sparse',
   'c:\\python27\\lib\\site-packages\\pandas\\core\\sparse.py',
   'PYMODULE'),
  ('pandas.sparse.panel',
   'c:\\python27\\lib\\site-packages\\pandas\\sparse\\panel.py',
   'PYMODULE'),
  ('pandas.sparse',
   'c:\\python27\\lib\\site-packages\\pandas\\sparse\\__init__.py',
   'PYMODULE'),
  ('pandas.io.pickle',
   'c:\\python27\\lib\\site-packages\\pandas\\io\\pickle.py',
   'PYMODULE'),
  ('pandas.sparse.frame',
   'c:\\python27\\lib\\site-packages\\pandas\\sparse\\frame.py',
   'PYMODULE'),
  ('pandas.sparse.series',
   'c:\\python27\\lib\\site-packages\\pandas\\sparse\\series.py',
   'PYMODULE'),
  ('pandas.sparse.scipy_sparse',
   'c:\\python27\\lib\\site-packages\\pandas\\sparse\\scipy_sparse.py',
   'PYMODULE'),
  ('pandas.sparse.array',
   'c:\\python27\\lib\\site-packages\\pandas\\sparse\\array.py',
   'PYMODULE'),
  ('pandas.indexes.base',
   'c:\\python27\\lib\\site-packages\\pandas\\indexes\\base.py',
   'PYMODULE'),
  ('pandas.indexes.multi',
   'c:\\python27\\lib\\site-packages\\pandas\\indexes\\multi.py',
   'PYMODULE'),
  ('pandas.indexes.numeric',
   'c:\\python27\\lib\\site-packages\\pandas\\indexes\\numeric.py',
   'PYMODULE'),
  ('pandas.indexes.category',
   'c:\\python27\\lib\\site-packages\\pandas\\indexes\\category.py',
   'PYMODULE'),
  ('pandas.indexes.range',
   'c:\\python27\\lib\\site-packages\\pandas\\indexes\\range.py',
   'PYMODULE'),
  ('pandas.types.concat',
   'c:\\python27\\lib\\site-packages\\pandas\\types\\concat.py',
   'PYMODULE'),
  ('pandas.types',
   'c:\\python27\\lib\\site-packages\\pandas\\types\\__init__.py',
   'PYMODULE'),
  ('pandas.types.api',
   'c:\\python27\\lib\\site-packages\\pandas\\types\\api.py',
   'PYMODULE'),
  ('pandas.types.generic',
   'c:\\python27\\lib\\site-packages\\pandas\\types\\generic.py',
   'PYMODULE'),
  ('pandas.types.dtypes',
   'c:\\python27\\lib\\site-packages\\pandas\\types\\dtypes.py',
   'PYMODULE'),
  ('pandas.indexes',
   'c:\\python27\\lib\\site-packages\\pandas\\indexes\\__init__.py',
   'PYMODULE'),
  ('pandas.formats.format',
   'c:\\python27\\lib\\site-packages\\pandas\\formats\\format.py',
   'PYMODULE'),
  ('pandas.formats',
   'c:\\python27\\lib\\site-packages\\pandas\\formats\\__init__.py',
   'PYMODULE'),
  ('pandas.core.nanops',
   'c:\\python27\\lib\\site-packages\\pandas\\core\\nanops.py',
   'PYMODULE'),
  ('pandas.core.datetools',
   'c:\\python27\\lib\\site-packages\\pandas\\core\\datetools.py',
   'PYMODULE'),
  ('pandas.core.ops',
   'c:\\python27\\lib\\site-packages\\pandas\\core\\ops.py',
   'PYMODULE'),
  ('pandas.tseries.timedeltas',
   'c:\\python27\\lib\\site-packages\\pandas\\tseries\\timedeltas.py',
   'PYMODULE'),
  ('pandas.compat.numpy.function',
   'c:\\python27\\lib\\site-packages\\pandas\\compat\\numpy\\function.py',
   'PYMODULE'),
  ('pandas.util.terminal',
   'c:\\python27\\lib\\site-packages\\pandas\\util\\terminal.py',
   'PYMODULE'),
  ('pandas.tseries.period',
   'c:\\python27\\lib\\site-packages\\pandas\\tseries\\period.py',
   'PYMODULE'),
  ('pandas.tseries.base',
   'c:\\python27\\lib\\site-packages\\pandas\\tseries\\base.py',
   'PYMODULE'),
  ('pandas.tseries.tdi',
   'c:\\python27\\lib\\site-packages\\pandas\\tseries\\tdi.py',
   'PYMODULE'),
  ('pandas.tseries.common',
   'c:\\python27\\lib\\site-packages\\pandas\\tseries\\common.py',
   'PYMODULE'),
  ('pandas.core.strings',
   'c:\\python27\\lib\\site-packages\\pandas\\core\\strings.py',
   'PYMODULE'),
  ('pandas.core.categorical',
   'c:\\python27\\lib\\site-packages\\pandas\\core\\categorical.py',
   'PYMODULE'),
  ('pandas.core.internals',
   'c:\\python27\\lib\\site-packages\\pandas\\core\\internals.py',
   'PYMODULE'),
  ('pandas.core.convert',
   'c:\\python27\\lib\\site-packages\\pandas\\core\\convert.py',
   'PYMODULE'),
  ('pandas.core.base',
   'c:\\python27\\lib\\site-packages\\pandas\\core\\base.py',
   'PYMODULE'),
  ('pandas.core.generic',
   'c:\\python27\\lib\\site-packages\\pandas\\core\\generic.py',
   'PYMODULE'),
  ('pandas.core.indexing',
   'c:\\python27\\lib\\site-packages\\pandas\\core\\indexing.py',
   'PYMODULE'),
  ('pandas.core',
   'c:\\python27\\lib\\site-packages\\pandas\\core\\__init__.py',
   'PYMODULE'),
  ('pandas.tseries.offsets',
   'c:\\python27\\lib\\site-packages\\pandas\\tseries\\offsets.py',
   'PYMODULE'),
  ('pandas.tseries.index',
   'c:\\python27\\lib\\site-packages\\pandas\\tseries\\index.py',
   'PYMODULE'),
  ('pandas.tseries',
   'c:\\python27\\lib\\site-packages\\pandas\\tseries\\__init__.py',
   'PYMODULE'),
  ('pandas.io.date_converters',
   'c:\\python27\\lib\\site-packages\\pandas\\io\\date_converters.py',
   'PYMODULE'),
  ('pandas.core.config',
   'c:\\python27\\lib\\site-packages\\pandas\\core\\config.py',
   'PYMODULE'),
  ('pandas.core.frame',
   'c:\\python27\\lib\\site-packages\\pandas\\core\\frame.py',
   'PYMODULE'),
  ('pandas.io.stata',
   'c:\\python27\\lib\\site-packages\\pandas\\io\\stata.py',
   'PYMODULE'),
  ('pandas.formats.style',
   'c:\\python27\\lib\\site-packages\\pandas\\formats\\style.py',
   'PYMODULE'),
  ('pandas.computation.eval',
   'c:\\python27\\lib\\site-packages\\pandas\\computation\\eval.py',
   'PYMODULE'),
  ('pandas.computation.engines',
   'c:\\python27\\lib\\site-packages\\pandas\\computation\\engines.py',
   'PYMODULE'),
  ('pandas.computation.ops',
   'c:\\python27\\lib\\site-packages\\pandas\\computation\\ops.py',
   'PYMODULE'),
  ('pandas.computation.common',
   'c:\\python27\\lib\\site-packages\\pandas\\computation\\common.py',
   'PYMODULE'),
  ('pandas.computation.align',
   'c:\\python27\\lib\\site-packages\\pandas\\computation\\align.py',
   'PYMODULE'),
  ('pandas.computation.scope',
   'c:\\python27\\lib\\site-packages\\pandas\\computation\\scope.py',
   'PYMODULE'),
  ('pandas.computation.expr',
   'c:\\python27\\lib\\site-packages\\pandas\\computation\\expr.py',
   'PYMODULE'),
  ('pandas.core.index',
   'c:\\python27\\lib\\site-packages\\pandas\\core\\index.py',
   'PYMODULE'),
  ('pandas.indexes.api',
   'c:\\python27\\lib\\site-packages\\pandas\\indexes\\api.py',
   'PYMODULE'),
  ('pandas.util.clipboard',
   'c:\\python27\\lib\\site-packages\\pandas\\util\\clipboard.py',
   'PYMODULE'),
  ('pandas.io.sql',
   'c:\\python27\\lib\\site-packages\\pandas\\io\\sql.py',
   'PYMODULE'),
  ('sqlite3', 'c:\\python27\\lib\\sqlite3\\__init__.py', 'PYMODULE'),
  ('sqlite3.dump', 'c:\\python27\\lib\\sqlite3\\dump.py', 'PYMODULE'),
  ('sqlite3.dbapi2', 'c:\\python27\\lib\\sqlite3\\dbapi2.py', 'PYMODULE'),
  ('pandas.io.packers',
   'c:\\python27\\lib\\site-packages\\pandas\\io\\packers.py',
   'PYMODULE'),
  ('pandas.msgpack',
   'c:\\python27\\lib\\site-packages\\pandas\\msgpack\\__init__.py',
   'PYMODULE'),
  ('pandas.msgpack.exceptions',
   'c:\\python27\\lib\\site-packages\\pandas\\msgpack\\exceptions.py',
   'PYMODULE'),
  ('pandas.msgpack._version',
   'c:\\python27\\lib\\site-packages\\pandas\\msgpack\\_version.py',
   'PYMODULE'),
  ('pandas.io.pytables',
   'c:\\python27\\lib\\site-packages\\pandas\\io\\pytables.py',
   'PYMODULE'),
  ('pandas.computation.pytables',
   'c:\\python27\\lib\\site-packages\\pandas\\computation\\pytables.py',
   'PYMODULE'),
  ('pandas.io.json',
   'c:\\python27\\lib\\site-packages\\pandas\\io\\json.py',
   'PYMODULE'),
  ('pandas.util.decorators',
   'c:\\python27\\lib\\site-packages\\pandas\\util\\decorators.py',
   'PYMODULE'),
  ('pandas.computation.expressions',
   'c:\\python27\\lib\\site-packages\\pandas\\computation\\expressions.py',
   'PYMODULE'),
  ('pandas.computation',
   'c:\\python27\\lib\\site-packages\\pandas\\computation\\__init__.py',
   'PYMODULE'),
  ('pandas.core.algorithms',
   'c:\\python27\\lib\\site-packages\\pandas\\core\\algorithms.py',
   'PYMODULE'),
  ('pandas.formats.printing',
   'c:\\python27\\lib\\site-packages\\pandas\\formats\\printing.py',
   'PYMODULE'),
  ('pandas.core.common',
   'c:\\python27\\lib\\site-packages\\pandas\\core\\common.py',
   'PYMODULE'),
  ('pandas.util.print_versions',
   'c:\\python27\\lib\\site-packages\\pandas\\util\\print_versions.py',
   'PYMODULE'),
  ('pandas.core.reshape',
   'c:\\python27\\lib\\site-packages\\pandas\\core\\reshape.py',
   'PYMODULE'),
  ('pandas.tools.util',
   'c:\\python27\\lib\\site-packages\\pandas\\tools\\util.py',
   'PYMODULE'),
  ('pandas.tools',
   'c:\\python27\\lib\\site-packages\\pandas\\tools\\__init__.py',
   'PYMODULE'),
  ('pandas.tools.tile',
   'c:\\python27\\lib\\site-packages\\pandas\\tools\\tile.py',
   'PYMODULE'),
  ('pandas.tools.plotting',
   'c:\\python27\\lib\\site-packages\\pandas\\tools\\plotting.py',
   'PYMODULE'),
  ('pandas.tseries.plotting',
   'c:\\python27\\lib\\site-packages\\pandas\\tseries\\plotting.py',
   'PYMODULE'),
  ('pandas.tseries.converter',
   'c:\\python27\\lib\\site-packages\\pandas\\tseries\\converter.py',
   'PYMODULE'),
  ('pandas.tools.pivot',
   'c:\\python27\\lib\\site-packages\\pandas\\tools\\pivot.py',
   'PYMODULE'),
  ('pandas.tools.merge',
   'c:\\python27\\lib\\site-packages\\pandas\\tools\\merge.py',
   'PYMODULE'),
  ('pandas.computation.api',
   'c:\\python27\\lib\\site-packages\\pandas\\computation\\api.py',
   'PYMODULE'),
  ('pandas.io.api',
   'c:\\python27\\lib\\site-packages\\pandas\\io\\api.py',
   'PYMODULE'),
  ('pandas.io.sas.sasreader',
   'c:\\python27\\lib\\site-packages\\pandas\\io\\sas\\sasreader.py',
   'PYMODULE'),
  ('pandas.io.sas',
   'c:\\python27\\lib\\site-packages\\pandas\\io\\sas\\__init__.py',
   'PYMODULE'),
  ('pandas.io.sas.sas7bdat',
   'c:\\python27\\lib\\site-packages\\pandas\\io\\sas\\sas7bdat.py',
   'PYMODULE'),
  ('pandas.io.sas.sas_constants',
   'c:\\python27\\lib\\site-packages\\pandas\\io\\sas\\sas_constants.py',
   'PYMODULE'),
  ('pandas.io.sas.sas_xport',
   'c:\\python27\\lib\\site-packages\\pandas\\io\\sas\\sas_xport.py',
   'PYMODULE'),
  ('pandas.io.html',
   'c:\\python27\\lib\\site-packages\\pandas\\io\\html.py',
   'PYMODULE'),
  ('pandas.tseries.api',
   'c:\\python27\\lib\\site-packages\\pandas\\tseries\\api.py',
   'PYMODULE'),
  ('pandas.stats.api',
   'c:\\python27\\lib\\site-packages\\pandas\\stats\\api.py',
   'PYMODULE'),
  ('pandas.stats',
   'c:\\python27\\lib\\site-packages\\pandas\\stats\\__init__.py',
   'PYMODULE'),
  ('pandas.stats.fama_macbeth',
   'c:\\python27\\lib\\site-packages\\pandas\\stats\\fama_macbeth.py',
   'PYMODULE'),
  ('pandas.stats.plm',
   'c:\\python27\\lib\\site-packages\\pandas\\stats\\plm.py',
   'PYMODULE'),
  ('pandas.stats.math',
   'c:\\python27\\lib\\site-packages\\pandas\\stats\\math.py',
   'PYMODULE'),
  ('pandas.stats.ols',
   'c:\\python27\\lib\\site-packages\\pandas\\stats\\ols.py',
   'PYMODULE'),
  ('pandas.stats.common',
   'c:\\python27\\lib\\site-packages\\pandas\\stats\\common.py',
   'PYMODULE'),
  ('pandas.stats.interface',
   'c:\\python27\\lib\\site-packages\\pandas\\stats\\interface.py',
   'PYMODULE'),
  ('pandas.stats.moments',
   'c:\\python27\\lib\\site-packages\\pandas\\stats\\moments.py',
   'PYMODULE'),
  ('pandas.sparse.api',
   'c:\\python27\\lib\\site-packages\\pandas\\sparse\\api.py',
   'PYMODULE'),
  ('pandas.sparse.list',
   'c:\\python27\\lib\\site-packages\\pandas\\sparse\\list.py',
   'PYMODULE'),
  ('pandas.core.api',
   'c:\\python27\\lib\\site-packages\\pandas\\core\\api.py',
   'PYMODULE'),
  ('pandas.core.panel4d',
   'c:\\python27\\lib\\site-packages\\pandas\\core\\panel4d.py',
   'PYMODULE'),
  ('pandas.core.panelnd',
   'c:\\python27\\lib\\site-packages\\pandas\\core\\panelnd.py',
   'PYMODULE'),
  ('pandas.core.config_init',
   'c:\\python27\\lib\\site-packages\\pandas\\core\\config_init.py',
   'PYMODULE'),
  ('pandas.info',
   'c:\\python27\\lib\\site-packages\\pandas\\info.py',
   'PYMODULE'),
  ('pandas.compat.numpy',
   'c:\\python27\\lib\\site-packages\\pandas\\compat\\numpy\\__init__.py',
   'PYMODULE'),
  ('xlwings',
   'c:\\python27\\lib\\site-packages\\xlwings\\__init__.py',
   'PYMODULE'),
  ('xlwings.server',
   'c:\\python27\\lib\\site-packages\\xlwings\\server.py',
   'PYMODULE'),
  ('xlwings.udfs',
   'c:\\python27\\lib\\site-packages\\xlwings\\udfs.py',
   'PYMODULE'),
  ('xlwings.utils',
   'c:\\python27\\lib\\site-packages\\xlwings\\utils.py',
   'PYMODULE'),
  ('xlwings.constants',
   'c:\\python27\\lib\\site-packages\\xlwings\\constants.py',
   'PYMODULE'),
  ('xlwings.main',
   'c:\\python27\\lib\\site-packages\\xlwings\\main.py',
   'PYMODULE'),
  ('xlwings.conversion',
   'c:\\python27\\lib\\site-packages\\xlwings\\conversion\\__init__.py',
   'PYMODULE'),
  ('xlwings.conversion.pandas_conv',
   'c:\\python27\\lib\\site-packages\\xlwings\\conversion\\pandas_conv.py',
   'PYMODULE'),
  ('xlwings.conversion.numpy_conv',
   'c:\\python27\\lib\\site-packages\\xlwings\\conversion\\numpy_conv.py',
   'PYMODULE'),
  ('xlwings.conversion.standard',
   'c:\\python27\\lib\\site-packages\\xlwings\\conversion\\standard.py',
   'PYMODULE'),
  ('xlwings.conversion.framework',
   'c:\\python27\\lib\\site-packages\\xlwings\\conversion\\framework.py',
   'PYMODULE'),
  ('xlwings._xlmac',
   'c:\\python27\\lib\\site-packages\\xlwings\\_xlmac.py',
   'PYMODULE'),
  ('xlwings.mac_dict',
   'c:\\python27\\lib\\site-packages\\xlwings\\mac_dict.py',
   'PYMODULE'),
  ('xlwings._xlwindows',
   'c:\\python27\\lib\\site-packages\\xlwings\\_xlwindows.py',
   'PYMODULE'),
  ('comtypes.automation',
   'c:\\python27\\lib\\site-packages\\comtypes\\automation.py',
   'PYMODULE'),
  ('comtypes.safearray',
   'c:\\python27\\lib\\site-packages\\comtypes\\safearray.py',
   'PYMODULE'),
  ('comtypes.client',
   'c:\\python27\\lib\\site-packages\\comtypes\\client\\__init__.py',
   'PYMODULE'),
  ('comtypes.client._code_cache',
   'c:\\python27\\lib\\site-packages\\comtypes\\client\\_code_cache.py',
   'PYMODULE'),
  ('comtypes.client._generate',
   'c:\\python27\\lib\\site-packages\\comtypes\\client\\_generate.py',
   'PYMODULE'),
  ('comtypes.tools.tlbparser',
   'c:\\python27\\lib\\site-packages\\comtypes\\tools\\tlbparser.py',
   'PYMODULE'),
  ('comtypes.persist',
   'c:\\python27\\lib\\site-packages\\comtypes\\persist.py',
   'PYMODULE'),
  ('comtypes.tools.typedesc',
   'c:\\python27\\lib\\site-packages\\comtypes\\tools\\typedesc.py',
   'PYMODULE'),
  ('comtypes.tools.typedesc_base',
   'c:\\python27\\lib\\site-packages\\comtypes\\tools\\typedesc_base.py',
   'PYMODULE'),
  ('comtypes.tools',
   'c:\\python27\\lib\\site-packages\\comtypes\\tools\\__init__.py',
   'PYMODULE'),
  ('comtypes.tools.codegenerator',
   'c:\\python27\\lib\\site-packages\\comtypes\\tools\\codegenerator.py',
   'PYMODULE'),
  ('comtypes.client._events',
   'c:\\python27\\lib\\site-packages\\comtypes\\client\\_events.py',
   'PYMODULE'),
  ('comtypes._comobject',
   'c:\\python27\\lib\\site-packages\\comtypes\\_comobject.py',
   'PYMODULE'),
  ('comtypes.messageloop',
   'c:\\python27\\lib\\site-packages\\comtypes\\messageloop.py',
   'PYMODULE'),
  ('comtypes.errorinfo',
   'c:\\python27\\lib\\site-packages\\comtypes\\errorinfo.py',
   'PYMODULE'),
  ('comtypes.connectionpoints',
   'c:\\python27\\lib\\site-packages\\comtypes\\connectionpoints.py',
   'PYMODULE'),
  ('comtypes.client.dynamic',
   'c:\\python27\\lib\\site-packages\\comtypes\\client\\dynamic.py',
   'PYMODULE'),
  ('comtypes.client.lazybind',
   'c:\\python27\\lib\\site-packages\\comtypes\\client\\lazybind.py',
   'PYMODULE'),
  ('comtypes.typeinfo',
   'c:\\python27\\lib\\site-packages\\comtypes\\typeinfo.py',
   'PYMODULE'),
  ('comtypes._safearray',
   'c:\\python27\\lib\\site-packages\\comtypes\\_safearray.py',
   'PYMODULE'),
  ('comtypes.npsupport',
   'c:\\python27\\lib\\site-packages\\comtypes\\npsupport.py',
   'PYMODULE'),
  ('comtypes.patcher',
   'c:\\python27\\lib\\site-packages\\comtypes\\patcher.py',
   'PYMODULE'),
  ('comtypes.hresult',
   'c:\\python27\\lib\\site-packages\\comtypes\\hresult.py',
   'PYMODULE'),
  ('comtypes.GUID',
   'c:\\python27\\lib\\site-packages\\comtypes\\GUID.py',
   'PYMODULE'),
  ('comtypes',
   'c:\\python27\\lib\\site-packages\\comtypes\\__init__.py',
   'PYMODULE'),
  ('comtypes._meta',
   'c:\\python27\\lib\\site-packages\\comtypes\\_meta.py',
   'PYMODULE'),
  ('comtypes.server',
   'c:\\python27\\lib\\site-packages\\comtypes\\server\\__init__.py',
   'PYMODULE'),
  ('win32timezone',
   'c:\\python27\\lib\\site-packages\\win32\\lib\\win32timezone.py',
   'PYMODULE'),
  ('tkFileDialog', 'c:\\python27\\lib\\lib-tk\\tkFileDialog.py', 'PYMODULE'),
  ('tkCommonDialog',
   'c:\\python27\\lib\\lib-tk\\tkCommonDialog.py',
   'PYMODULE'),
  ('Tkinter', 'c:\\python27\\lib\\lib-tk\\Tkinter.py', 'PYMODULE'),
  ('Tkconstants', 'c:\\python27\\lib\\lib-tk\\Tkconstants.py', 'PYMODULE'),
  ('FixTk', 'c:\\python27\\lib\\lib-tk\\FixTk.py', 'PYMODULE')])
